Division,WeightClassKg,Place,Name,Team,BodyweightKg,Best3SquatKg,Best3BenchKg,Best3DeadliftKg,TotalKg,Equipment,Event,Sex
Boys,51.71,1,Angel Gomez,Comal Canyon,49.44,113.4,65.77,127.01,306.17,Single-ply,SBD,M
Boys,51.71,2,Josh Ramirez,Kyle Lehman,51.26,102.06,63.5,129.27,294.84,Single-ply,SBD,M
Boys,51.71,3,Reggie Manley,Killeen Shoemaker,47.17,92.99,54.43,129.27,276.69,Single-ply,SBD,M
Boys,55.79,4,Chance Gonzales,Del Valle,51.94,68.04,56.7,104.33,229.06,Single-ply,SBD,M
Boys,51.71,5,Creighton McFallin,Dripping Springs,50.8,92.99,36.29,83.91,213.19,Single-ply,SBD,M
Boys,51.71,6,Allen Wimberley,Lockhart,48.08,72.57,34.02,52.16,158.76,Single-ply,SBD,M
Boys,55.79,1,Julio Ramirez,Comal Canyon,53.07,122.47,52.16,136.08,310.71,Single-ply,SBD,M
Boys,55.79,DQ,Justin Arteaga,Comal Canyon,53.07,,,,,Single-ply,SBD,M
Boys,55.79,DQ,Josh Fantauzzi,Buda Hays,54.43,129.27,,,,Single-ply,SBD,M
Boys,59.87,1,Brandon Alford,Kyle Lehman,59.87,161.03,102.06,190.51,453.59,Single-ply,SBD,M
Boys,59.87,2,Mitchell Classen,Buda Hays,59.42,151.95,92.99,165.56,410.5,Single-ply,SBD,M
Boys,59.87,DQ,Matthew Maldonado,Del Valle,59.42,,,,,Single-ply,SBD,M
Boys,59.87,4,Alex St Louis,Killeen Shoemaker,59.42,136.08,72.57,142.88,351.53,Single-ply,SBD,M
Boys,59.87,5,Bernardo Natividad,Del Valle,57.15,104.33,79.38,149.69,333.39,Single-ply,SBD,M
Boys,59.87,6,Max Dayton,Bastrop,57.61,99.79,65.77,138.35,303.91,Single-ply,SBD,M
Boys,59.87,7,Adam Adair,Buda Hays,58.97,102.06,74.84,124.74,301.64,Single-ply,SBD,M
Boys,59.87,8,Eric Bond,Bastrop,56.7,102.06,72.57,124.74,299.37,Single-ply,SBD,M
Boys,59.87,9,Alvin Martinez,Del Valle,57.15,88.45,58.97,115.67,263.08,Single-ply,SBD,M
Boys,67.13,1,Axel Gomez,Austin Lake Travis,65.77,154.22,111.13,199.58,464.93,Single-ply,SBD,M
Boys,67.13,2,Taylor Hough,Buda Hays,66.22,170.1,97.52,165.56,433.18,Single-ply,SBD,M
Boys,67.13,3,Andy Rivera,Universal City Randolph,65.77,136.08,88.45,156.49,381.02,Single-ply,SBD,M
Boys,67.13,4,Chris Marachl,Universal City Randolph,64.86,129.27,90.72,151.95,371.95,Single-ply,SBD,M
Boys,74.84,5,Tanner Nelson,Bastrop,67.36,129.27,72.57,142.88,344.73,Single-ply,SBD,M
Boys,67.13,6,Nick Brooks #2,Austin Lake Travis,66.68,111.13,79.38,145.15,335.66,Single-ply,SBD,M
Boys,67.13,7,Ashloyd Rodriguez,Del Valle,66.22,92.99,56.7,124.74,274.42,Single-ply,SBD,M
Boys,67.13,8,Quavon Stevens,Del Valle,64.41,92.99,56.7,115.67,265.35,Single-ply,SBD,M
Boys,67.13,DQ,Connor Bond,Austin Lake Travis,64.86,111.13,,,,Single-ply,SBD,M
Boys,74.84,1,Jon Frasier,Kyle Lehman,72.57,204.12,142.88,224.53,571.53,Single-ply,SBD,M
Boys,74.84,2,Lonnie Overturf,Comal Canyon,70.76,197.31,133.81,208.65,539.77,Single-ply,SBD,M
Boys,74.84,3,Tyler Hell,Comal Canyon,74.84,192.78,108.86,213.19,514.83,Single-ply,SBD,M
Boys,74.84,4,Will Perrin,Universal City Randolph,72.57,176.9,81.65,190.51,449.06,Single-ply,SBD,M
Boys,82.1,5,Mark Trevino,Kyle Lehman,75.07,158.76,113.4,174.63,446.79,Single-ply,SBD,M
Boys,74.84,6,Marcus Reed,Bastrop,68.95,158.76,102.06,172.37,433.18,Single-ply,SBD,M
Boys,74.84,7,Hayden Eskew,Buda Hays,74.39,136.08,120.2,151.95,408.23,Single-ply,SBD,M
Boys,74.84,8,Jacob Rodriguez #1,Geronimo Navarro,70.31,145.15,95.25,163.29,403.7,Single-ply,SBD,M
Boys,74.84,9,Colton Odell,Buda Hays,68.95,142.88,86.18,170.1,399.16,Single-ply,SBD,M
Boys,74.84,10,Jay Leal,Geronimo Navarro,68.49,147.42,81.65,161.03,390.09,Single-ply,SBD,M
Boys,74.84,11,Mike Castillo,Geronimo Navarro,70.76,136.08,95.25,147.42,378.75,Single-ply,SBD,M
Boys,74.84,12,Darian Parker,Killeen Shoemaker,68.95,136.08,95.25,145.15,376.48,Single-ply,SBD,M
Boys,74.84,DQ,Dominic Robledo,Del Valle,74.84,97.52,,,,Single-ply,SBD,M
Boys,82.1,DQ,Quentin Bradford,Bastrop,75.07,154.22,,,,Single-ply,SBD,M
Boys,74.84,DQ,Brandon Gonzalez,Bastrop,68.49,,,,,Single-ply,SBD,M
Boys,74.84,DQ,Eric Schoen,Bastrop,74.84,,,,,Single-ply,SBD,M
Boys,82.1,1,John Monreal,Del Valle,82.1,238.14,138.35,215.46,591.94,Single-ply,SBD,M
Boys,82.1,2,Shaq Henry,Universal City Randolph,82.1,188.24,97.52,181.44,467.2,Single-ply,SBD,M
Boys,82.1,3,Sean Hancock,Geronimo Navarro,82.1,154.22,124.74,158.76,437.72,Single-ply,SBD,M
Boys,82.1,4,Austin Metzger,Universal City Randolph,82.1,149.69,97.52,181.44,428.64,Single-ply,SBD,M
Boys,82.1,5,Jonathan Taylor,Killeen Shoemaker,82.1,142.88,97.52,181.44,421.84,Single-ply,SBD,M
Boys,82.1,6,Chris Fries,Dripping Springs,80.74,140.61,77.11,174.63,392.36,Single-ply,SBD,M
Boys,82.1,7,Ben Bateman,Dripping Springs,80.29,136.08,74.84,149.69,360.61,Single-ply,SBD,M
Boys,82.1,8,Jordan Ribera,Dripping Springs,76.66,133.81,74.84,147.42,356.07,Single-ply,SBD,M
Boys,82.1,9,Derrick Coleman,Killeen Shoemaker,79.83,111.13,70.31,131.54,312.98,Single-ply,SBD,M
Boys,82.1,DQ,Casey Barton,Comal Canyon,82.1,183.7,,,,Single-ply,SBD,M
Boys,89.81,1,Harvest Trammell,Kyle Lehman,86.64,195.04,108.86,222.26,526.17,Single-ply,SBD,M
Boys,89.81,2,Cole Thompson,Universal City Randolph,82.78,188.24,111.13,197.31,496.68,Single-ply,SBD,M
Boys,89.81,3,Ethan Martin,Kyle Lehman,84.37,170.1,104.33,222.26,496.68,Single-ply,SBD,M
Boys,89.81,4,Victor Martinez,Buda Hays,87.09,190.51,124.74,165.56,480.81,Single-ply,SBD,M
Boys,89.81,5,Andre Davis,Bastrop,88.9,158.76,124.74,167.83,451.32,Single-ply,SBD,M
Boys,89.81,6,Chris Skilang,Killeen Shoemaker,85.28,183.7,104.33,158.76,446.79,Single-ply,SBD,M
Boys,89.81,7,Tyler James,Buda Hays,87.54,124.74,108.86,190.51,424.11,Single-ply,SBD,M
Boys,89.81,8,Sam Osborne,Universal City Randolph,86.18,158.76,83.91,167.83,410.5,Single-ply,SBD,M
Boys,89.81,9,Bradley Slate,Lockhart,85.73,142.88,102.06,161.03,405.97,Single-ply,SBD,M
Boys,89.81,10,Micah Jones,Universal City Randolph,87.54,131.54,90.72,165.56,387.82,Single-ply,SBD,M
Boys,89.81,11,Avery McThompson,Dripping Springs,86.18,124.74,88.45,151.95,365.14,Single-ply,SBD,M
Boys,89.81,12,Sam Jones #1,Universal City Randolph,88.9,131.54,61.23,172.37,365.14,Single-ply,SBD,M
Boys,89.81,13,Austin Isaac,Geronimo Navarro,87.09,140.61,74.84,138.35,353.8,Single-ply,SBD,M
Boys,89.81,DQ,Jeffrey Moreno,Comal Canyon,83.46,240.4,,,,Single-ply,SBD,M
Boys,99.79,1,Wayne Lum,Bastrop,96.62,233.6,124.74,229.06,587.4,Single-ply,SBD,M
Boys,99.79,2,Jordan Huckaby,Lockhart,98.88,192.78,124.74,208.65,526.17,Single-ply,SBD,M
Boys,99.79,3,Ian Coleman,Universal City Randolph,98.88,204.12,115.67,167.83,487.61,Single-ply,SBD,M
Boys,99.79,4,Jaimme Bunt,Killeen Shoemaker,95.71,185.97,115.67,183.7,485.34,Single-ply,SBD,M
Boys,99.79,5,Joshua King,Killeen Shoemaker,93.89,183.7,102.06,195.04,480.81,Single-ply,SBD,M
Boys,99.79,6,Ronnie Carter,Geronimo Navarro,91.17,167.83,117.93,174.63,460.4,Single-ply,SBD,M
Boys,99.79,7,Vinny Flores,Comal Canyon,98.88,183.7,92.99,183.7,460.4,Single-ply,SBD,M
Boys,99.79,8,Richie Boswell,Austin Lake Travis,98.43,174.63,106.59,156.49,437.72,Single-ply,SBD,M
Boys,99.79,9,Josh Pesina,Buda Hays,97.52,158.76,97.52,165.56,421.84,Single-ply,SBD,M
Boys,99.79,10,Tyler Pharris,Universal City Randolph,94.8,145.15,88.45,181.44,415.04,Single-ply,SBD,M
Boys,99.79,11,Nick Ringler,Universal City Randolph,96.62,154.22,99.79,158.76,412.77,Single-ply,SBD,M
Boys,99.79,12,Liam Murphy,Universal City Randolph,97.98,158.76,90.72,156.49,405.97,Single-ply,SBD,M
Boys,99.79,13,Shakir Rockett,Killeen Shoemaker,91.63,140.61,83.91,158.76,383.29,Single-ply,SBD,M
Boys,99.79,DQ,Brian Branecky,Bastrop,98.43,,,,,Single-ply,SBD,M
Boys,109.77,1,Cole Callaway,Universal City Randolph,108.41,190.51,149.69,190.51,530.7,Single-ply,SBD,M
Boys,109.77,2,Cruz Banda,Kyle Lehman,101.15,185.97,113.4,174.63,474,Single-ply,SBD,M
Boys,109.77,3,Cesar Juarez,Geronimo Navarro,105.69,167.83,111.13,190.51,469.47,Single-ply,SBD,M
Boys,109.77,4,David Velasquez,Geronimo Navarro,107.95,192.78,108.86,147.42,449.06,Single-ply,SBD,M
Boys,109.77,5,Jake Ramsey,Dripping Springs,109.77,142.88,83.91,117.93,344.73,Single-ply,SBD,M
Boys,109.77,6,Michael Lunsford,Dripping Springs,100.47,111.13,79.38,140.61,331.12,Single-ply,SBD,M
Boys,109.77,DQ,Kevin Quinn,Austin Lake Travis,100.7,,,,,Single-ply,SBD,M
Boys,109.77,DQ,Michael Warmke,Comal Canyon,109.77,,,,,Single-ply,SBD,M
Boys,124.74,1,Will Cavanaugh,Comal Canyon,120.2,267.62,195.04,224.53,687.19,Single-ply,SBD,M
Boys,124.74,2,Austin Reyes,Buda Hays,110.68,238.14,124.74,226.8,589.67,Single-ply,SBD,M
Boys,124.74,3,Kenny Higgins,Kyle Lehman,122.02,224.53,142.88,190.51,557.92,Single-ply,SBD,M
Boys,124.74,4,Vincent Pesina,Buda Hays,116.12,231.33,131.54,192.78,555.65,Single-ply,SBD,M
Boys,124.74,5,Roman Esparza,Geronimo Navarro,113.85,210.92,104.33,215.46,530.7,Single-ply,SBD,M
Boys,124.74,6,Andrew Contreras,Lockhart,122.02,208.65,117.93,197.31,523.9,Single-ply,SBD,M
Boys,124.74,7,John Breedlove,Austin Lake Travis,118.84,151.95,95.25,181.44,428.64,Single-ply,SBD,M
Boys,124.74,8,Dan Breedlove,Austin Lake Travis,111.58,156.49,106.59,158.76,421.84,Single-ply,SBD,M
Boys,124.74,DQ,Ian Medford,Austin Lake Travis,115.21,174.63,106.59,,,Single-ply,SBD,M
Boys,124.74+,1,Ryne Lehman,Lockhart,132.9,199.58,142.88,206.38,548.85,Single-ply,SBD,M
Boys,124.74+,2,Dominick Chirco,Killeen Shoemaker,125.19,210.92,111.13,208.65,530.7,Single-ply,SBD,M
Boys,124.74+,3,Johnny Limon,Kyle Lehman,128.82,185.97,113.4,226.8,526.17,Single-ply,SBD,M
Boys,124.74+,4,Terrance Valentine,Killeen Shoemaker,136.08,170.1,124.74,204.12,498.95,Single-ply,SBD,M
Boys,124.74+,5,Bobby Limon,Kyle Lehman,127.01,142.88,117.93,181.44,442.25,Single-ply,SBD,M
Boys,124.74+,6,Ruben Hernandez #3,Geronimo Navarro,145.6,158.76,106.59,158.76,424.11,Single-ply,SBD,M
Boys,124.74+,DQ,Zach Dillon,Austin Lake Travis,133.36,,,,,Single-ply,SBD,M
Boys,124.74+,DQ,Hunter Siddons,Austin Lake Travis,128.82,181.44,,,,Single-ply,SBD,M
Boys,124.74+,DQ,Jacob Smith,Comal Canyon,128.82,192.78,,,,Single-ply,SBD,M
