Division,WeightClassKg,Place,Name,Team,BodyweightKg,Best3SquatKg,Best3BenchKg,Best3DeadliftKg,TotalKg,Equipment,Event,Sex
Boys,51.71,1,Jake Robertson,Clifton,46.54,104.33,70.31,113.4,288.03,Single-ply,SBD,M
Boys,51.71,2,Travis Lacina,Crawford,49.8,97.52,56.7,113.4,267.62,Single-ply,SBD,M
Boys,51.71,3,Jonathon Taylor #3,Lingleville,49.99,92.99,45.36,113.4,251.74,Single-ply,SBD,M
Boys,51.71,4,Brooks Bell,Rio Vista,51.07,83.91,54.43,106.59,244.94,Single-ply,SBD,M
Boys,51.71,5,John Guzman,China Spring,40.82,83.91,43.09,104.33,231.33,Single-ply,SBD,M
Boys,51.71,6,Dylan Whitlock,Glen Rose,46.99,63.5,38.56,90.72,192.78,Single-ply,SBD,M
Boys,51.71,DQ,Dillon Hervey,Mineral Wells,51.71,,,,,Single-ply,SBD,M
Boys,55.79,1,Gabe Senegal,Little River Academy,53.98,133.81,92.99,172.37,399.16,Single-ply,SBD,M
Boys,55.79,2,Cody Noller,Rio Vista,54.16,117.93,79.38,136.08,333.39,Single-ply,SBD,M
Boys,55.79,3,Bryce Jordan,Rio Vista,52.62,129.27,77.11,122.47,328.85,Single-ply,SBD,M
Boys,55.79,4,Nathan Smith #9,Glen Rose,55.61,111.13,72.57,142.88,326.59,Single-ply,SBD,M
Boys,59.87,5,Tanner Blackwell,Gatesville,55.88,117.93,68.04,140.61,326.59,Single-ply,SBD,M
Boys,59.87,6,Walker Shelton,Tolar,55.88,124.74,68.04,133.81,326.59,Single-ply,SBD,M
Boys,59.87,7,Brad Gravitt,China Spring,55.88,115.67,68.04,140.61,324.32,Single-ply,SBD,M
Boys,59.87,8,Carlin Linnabery,Glen Rose,55.97,117.93,70.31,120.2,308.44,Single-ply,SBD,M
Boys,55.79,9,Seth Miller,Mineral Wells,54.16,108.86,65.77,113.4,288.03,Single-ply,SBD,M
Boys,55.79,10,Ethan Clark #3,Rio Vista,52.53,92.99,52.16,113.4,258.55,Single-ply,SBD,M
Boys,59.87,1,Josh McCraw,Gatesville,58.06,195.04,97.52,179.17,471.74,Single-ply,SBD,M
Boys,59.87,2,Justin Burnett,Hamilton,59.51,181.44,88.45,167.83,437.72,Single-ply,SBD,M
Boys,59.87,3,Salvador Perez,Palmer,58.06,145.15,72.57,163.29,381.02,Single-ply,SBD,M
Boys,59.87,4,Joe Michael Sanchez,Lingleville,59.87,131.54,79.38,165.56,376.48,Single-ply,SBD,M
Boys,59.87,5,Mario Quintero,Clifton,59.87,149.69,79.38,145.15,374.21,Single-ply,SBD,M
Boys,59.87,6,Mike Owens,Milford,59.69,127.01,70.31,147.42,344.73,Single-ply,SBD,M
Boys,59.87,7,Michael Conatser,Lingleville,56.15,124.74,63.5,145.15,333.39,Single-ply,SBD,M
Boys,59.87,8,Caleb MacMaster,China Spring,58.6,106.59,79.38,140.61,326.59,Single-ply,SBD,M
Boys,59.87,9,Wyatt McClaran,Clifton,56.43,81.65,52.16,95.25,229.06,Single-ply,SBD,M
Boys,67.13,1,Mark New,Clifton,66.41,183.7,108.86,192.78,485.34,Single-ply,SBD,M
Boys,67.13,2,Jong Hoon Lim,Gatesville,65.77,172.37,104.33,195.04,471.74,Single-ply,SBD,M
Boys,67.13,3,Marcelino Coronado,Clifton,64.41,174.63,92.99,181.44,449.06,Single-ply,SBD,M
Boys,67.13,4,Ian Valdez,Glen Rose,65.41,165.56,86.18,170.1,421.84,Single-ply,SBD,M
Boys,67.13,5,Jonathan Moore,Crawford,67.13,156.49,97.52,165.56,419.57,Single-ply,SBD,M
Boys,67.13,6,Ruby Ramirez,Hamilton,65.32,163.29,92.99,154.22,410.5,Single-ply,SBD,M
Boys,67.13,7,Lane Crosthwaite,Clifton,65.23,145.15,90.72,165.56,401.43,Single-ply,SBD,M
Boys,67.13,8,Dakkota Thomas,Clifton,64.23,138.35,86.18,158.76,383.29,Single-ply,SBD,M
Boys,67.13,9,Marcus Aviles,Mineral Wells,63.5,117.93,92.99,136.08,347,Single-ply,SBD,M
Boys,67.13,10,Lewis Gonzalez,China Spring,63.96,115.67,83.91,142.88,342.46,Single-ply,SBD,M
Boys,67.13,11,Nick Russell,Rio Vista,66.86,129.27,77.11,124.74,331.12,Single-ply,SBD,M
Boys,74.84,1,Hunter Fritscher,Crawford,74.12,242.67,122.47,206.38,571.53,Single-ply,SBD,M
Boys,74.84,2,Matthew Maley,Crawford,70.22,219.99,117.93,208.65,546.58,Single-ply,SBD,M
Boys,74.84,3,Garrison Dean,Crawford,71.76,192.78,120.2,219.99,532.97,Single-ply,SBD,M
Boys,74.84,4,Daniel Fielder,Mineral Wells,73.57,185.97,131.54,215.46,532.97,Single-ply,SBD,M
Boys,74.84,5,Leo Gonzalez,Mineral Wells,71.94,190.51,124.74,174.63,489.88,Single-ply,SBD,M
Boys,74.84,6,Jamie Faust,Hamilton,74.39,204.12,83.91,174.63,462.66,Single-ply,SBD,M
Boys,74.84,7,Weldon Bleything,Crawford,72.21,181.44,83.91,174.63,439.98,Single-ply,SBD,M
Boys,74.84,8,Jayen Lopez,Clifton,72.3,149.69,99.79,167.83,417.3,Single-ply,SBD,M
Boys,74.84,9,Matthew Weatherman,Crawford,68.22,113.4,70.31,136.08,319.78,Single-ply,SBD,M
Boys,82.1,DQ,Chase Mondrik,Little River Academy,74.93,158.76,,,,Single-ply,SBD,M
Boys,82.1,1,Brody Jones,Crawford,78.93,219.99,120.2,185.97,526.17,Single-ply,SBD,M
Boys,89.81,2,Zack Schrank,Hamilton,82.19,192.78,102.06,192.78,487.61,Single-ply,SBD,M
Boys,82.1,3,Chase Taylor,Gatesville,78.56,165.56,102.06,188.24,455.86,Single-ply,SBD,M
Boys,82.1,4,Sean Hill,China Spring,81.1,181.44,99.79,172.37,453.59,Single-ply,SBD,M
Boys,89.81,5,Wade Carter,China Spring,82.19,147.42,111.13,181.44,439.98,Single-ply,SBD,M
Boys,82.1,6,Thomas Simpson,Glen Rose,76.48,163.29,111.13,163.29,437.72,Single-ply,SBD,M
Boys,82.1,7,Senen Gonzalez,Mineral Wells,80.92,172.37,113.4,147.42,433.18,Single-ply,SBD,M
Boys,82.1,8,Isaiah Gardea,Clifton,77.11,147.42,97.52,158.76,403.7,Single-ply,SBD,M
Boys,82.1,9,Damien Hatcher,Dublin,80.2,129.27,104.33,136.08,369.68,Single-ply,SBD,M
Boys,82.1,10,Jacob Kevil,Crawford,79.65,133.81,86.18,145.15,365.14,Single-ply,SBD,M
Boys,82.1,11,Marquise Flint,Mineral Wells,79.2,140.61,81.65,140.61,362.87,Single-ply,SBD,M
Boys,82.1,12,Matt Borquin,Rio Vista,79.83,81.65,45.36,102.06,229.06,Single-ply,SBD,M
Boys,82.1,DQ,Jack Hughes #3,Glen Rose,78.2,129.27,,,,Single-ply,SBD,M
Boys,99.79,1,Chris Hubnik,Rogers,89.9,247.21,142.88,238.14,628.23,Single-ply,SBD,M
Boys,89.81,2,Robert Jones,Mineral Wells,85.73,204.12,129.27,181.44,514.83,Single-ply,SBD,M
Boys,89.81,3,Damien Aparicio,Mineral Wells,87,183.7,127.01,197.31,508.02,Single-ply,SBD,M
Boys,89.81,4,Jacob Rose,Milford,87.18,167.83,115.67,195.04,478.54,Single-ply,SBD,M
Boys,89.81,5,Hunter Redmond,Glen Rose,85.82,158.76,83.91,192.78,435.45,Single-ply,SBD,M
Boys,89.81,6,Kameren Bridges,China Spring,88.18,158.76,95.25,172.37,426.38,Single-ply,SBD,M
Boys,89.81,7,Ventura Navarrette,Glen Rose,85.73,156.49,95.25,154.22,405.97,Single-ply,SBD,M
Boys,89.81,8,Shane Strealy,Glen Rose,89.63,156.49,95.25,149.69,401.43,Single-ply,SBD,M
Boys,89.81,9,Seth Emblem,China Spring,82.83,136.08,102.06,151.95,390.09,Single-ply,SBD,M
Boys,89.81,10,Marshall Wirtz,Comanche,89.09,131.54,77.11,142.88,351.53,Single-ply,SBD,M
Boys,99.79,1,Jimmy Johnson,Glen Rose,99.61,281.23,181.44,260.82,723.48,Single-ply,SBD,M
Boys,99.79,2,Matt Meader,Gatesville,97.34,240.4,140.61,258.55,639.57,Single-ply,SBD,M
Boys,99.79,3,Tyler Tennerson,Mineral Wells,94.17,235.87,167.83,199.58,603.28,Single-ply,SBD,M
Boys,99.79,4,Kevin Abercrombie,Little River Academy,97.07,226.8,129.27,215.46,571.53,Single-ply,SBD,M
Boys,99.79,5,Jared Wilson,Rio Vista,96.71,215.46,136.08,213.19,564.72,Single-ply,SBD,M
Boys,99.79,6,Ej Waggy,Rogers,95.44,204.12,136.08,204.12,544.31,Single-ply,SBD,M
Boys,99.79,7,Cyle Hickey,Crawford,98.43,181.44,92.99,199.58,474,Single-ply,SBD,M
Boys,99.79,8,Justin Rhyne,Gatesville,96.34,176.9,117.93,163.29,458.13,Single-ply,SBD,M
Boys,99.79,9,Ace Rurak,Rio Vista,90.99,163.29,90.72,158.76,412.77,Single-ply,SBD,M
Boys,99.79,10,Blake Kaparian,Crawford,97.07,158.76,97.52,151.95,408.23,Single-ply,SBD,M
Boys,99.79,11,Colby Gohlke,Crawford,98.43,129.27,79.38,145.15,353.8,Single-ply,SBD,M
Boys,99.79,DQ,Rene Aleman,Dublin,96.52,195.04,,,,Single-ply,SBD,M
Boys,109.77,1,Jared Thames,Glen Rose,108.59,226.8,156.49,210.92,594.21,Single-ply,SBD,M
Boys,109.77,2,Colton Ridley,Gatesville,106.96,238.14,149.69,204.12,591.94,Single-ply,SBD,M
Boys,109.77,3,Jacob Lockhart,China Spring,109.41,222.26,131.54,192.78,546.58,Single-ply,SBD,M
Boys,109.77,4,Jesse Martinez,China Spring,103.42,190.51,117.93,181.44,489.88,Single-ply,SBD,M
Boys,109.77,5,Kirby Massingill,Hamilton,106.05,204.12,92.99,174.63,471.74,Single-ply,SBD,M
Boys,109.77,6,Talon Clift,Clifton,101.15,165.56,102.06,183.7,451.32,Single-ply,SBD,M
Boys,124.74,1,Zac Perez,Glen Rose,120.38,294.84,170.1,226.8,691.73,Single-ply,SBD,M
Boys,124.74,2,Ryan Zdroik,Rogers,115.76,238.14,151.95,226.8,616.89,Single-ply,SBD,M
Boys,124.74,3,Brandon Lane,Tolar,121.83,231.33,145.15,222.26,598.74,Single-ply,SBD,M
Boys,124.74,4,Brian Pullen,China Spring,123.47,244.94,142.88,210.92,598.74,Single-ply,SBD,M
Boys,124.74,5,Raul Torres,Palmer,117.84,195.04,124.74,199.58,519.36,Single-ply,SBD,M
Boys,124.74,6,Collin Sorrell,Gatesville,121.56,195.04,108.86,199.58,503.49,Single-ply,SBD,M
Boys,124.74,7,Sam Barnard,Glen Rose,117.3,156.49,122.47,145.15,424.11,Single-ply,SBD,M
Boys,124.74+,1,Colton Schroeder,Glen Rose,126.55,142.88,102.06,156.49,401.43,Single-ply,SBD,M
Boys,124.74+,DQ,Alan Singleton,Milford,172.37,,131.54,,,Single-ply,SBD,M
