Name,Event,Age,Sex,Equipment,Division,BodyweightKg,WeightClassKg,Squat1Kg,Squat2Kg,Squat3Kg,Best3SquatKg,Bench1Kg,Bench2Kg,Bench3Kg,Best3BenchKg,Deadlift1Kg,Deadlift2Kg,Deadlift3Kg,Best3DeadliftKg,TotalKg,Place
Ed Angstrom,B,76,M,Raw,MM8R,79,82.5,,,,,115,125,127.5,127.5,,,,,127.5,1
Tom Fox #1,B,64,M,Raw,MM5R,75,75,,,,,87.5,95,-100,95,,,,,95,1
Jonathan Canover,B,25,M,Raw,MOR-AD,136.6,140,,,,,205,220,230,230,,,,,230,1
Cody Hoferer,B,29,M,Raw,MOR,100,100,,,,,205,215,-227.5,215,,,,,215,1
Robert Hayes #2,B,35,M,Raw,MOR,92.8,100,,,,,185,-197.5,-197.5,185,,,,,185,2
Heath Johnson,B,34,M,Raw,MOR,109.4,110,,,,,185,195,205,205,,,,,205,1
Nick Berry,B,25,M,Raw,MOR,144.4,140+,,,,,187.5,200,210,210,,,,,210,1
Blake Bark,SBD,26,M,Wraps,MOR-AD,67,67.5,130,142.5,152.5,152.5,125,-137.5,-137.5,125,175,-185,-185,175,452.5,1
Ryan Girsch,SBD,35,M,Wraps,MOR-AD,73.8,75,172.5,185,190,190,110,-120,120,120,192.5,210,-215,210,520,1
Matthew Bailey,SBD,32,M,Wraps,MOR-AD,82.2,82.5,230,245,-272.5,245,140,-145,-145,140,255,272.5,,272.5,657.5,1
Matthew Kile,SBD,33,M,Wraps,MOR-AD,122.2,125,-240,245,-260,245,155,167.5,175,175,235,250,257.5,257.5,677.5,1
Kevin McHugh,SBD,27,M,Wraps,MOR-AD,174.8,140+,380,400,410,410,200,-212.5,-212.5,200,312.5,-325,,312.5,922.5,1
Sean Maly,SBD,31,M,Multi-ply,MO-AD,110,110,-267.5,-272.5,272.5,272.5,227.5,240,-245,240,227.5,245,-255,245,757.5,1
David Raymond,SBD,25,M,Wraps,MOR,67.2,67.5,250,280,-291,280,137.5,150,155,155,250,-280,-282.5,250,685,1
David Thompson,SBD,24,M,Wraps,MOR,75,75,240,255,262.5,262.5,155,167.5,-170,167.5,250,-262.5,-262.5,250,680,1
Kody Blazek,SBD,31,M,Wraps,MOR,81,82.5,295,-310,310,310,182.5,200,205,205,317.5,327.5,332.5,332.5,847.5,1
Amit Sapir,SBD,35,M,Wraps,MOR,82,82.5,332.5,-346,346,346,165,-177.5,177.5,177.5,182.5,250,277.5,277.5,801,2
Jeremy Brown,SBD,39,M,Wraps,MOR,81.6,82.5,227.5,240,247.5,247.5,142.5,150,157.5,157.5,237.5,250,257.5,257.5,662.5,3
Kyle Low,SBD,28,M,Wraps,MOR,80.8,82.5,220,-240,-245,220,130,135,142.5,142.5,242.5,260,262.5,262.5,625,4
Jon Sodawasser,SBD,24,M,Wraps,MOR,89.2,90,220,230,240,240,152.5,157.5,165,165,215,227.5,240,240,645,1
Nathan Gehrke,SBD,24,M,Wraps,MOR,87.6,90,220,-230,-235,220,137.5,147.5,-155,147.5,237.5,257.5,-265,257.5,625,2
Chris McFarland,SBD,31,M,Wraps,MOR,86.4,90,207.5,220,232.5,232.5,115,-125,-125,115,210,217.5,230,230,577.5,3
Angel Hernandez #1,SBD,28,M,Wraps,MOR,98.4,100,150,172.5,187.5,187.5,-87.5,105,110,110,195,212.5,-227.5,212.5,510,1
Eric Lund,SBD,28,M,Wraps,MOR,109.6,110,310,317.5,322.5,322.5,197.5,207.5,212.5,212.5,292.5,-307.5,-307.5,292.5,827.5,1
Nathan Maiers,SBD,24,M,Wraps,MOR,108.2,110,217.5,232.5,247.5,247.5,127.5,135,145,145,215,230,245,245,637.5,2
Ken Johnson,SBD,28,M,Wraps,MOR,119.4,125,220,230,237.5,237.5,182.5,192.5,197.5,197.5,260,275,-282.5,275,710,1
Kyle Bass,SBD,28,M,Wraps,MOR,122.6,125,227.5,247.5,257.5,257.5,187.5,197.5,-205,197.5,230,-245,-252.5,230,685,2
Luke Dreier,SBD,32,M,Wraps,MOR,135.8,140,340,365,-370,365,200,210,-220,210,330,-335,335,335,910,1
Aaron Lister,SBD,31,M,Wraps,MOR,140,140,295,320,330,330,200,-222.5,-222.5,200,307.5,332.5,337.5,337.5,867.5,2
Adam Harrington,SBD,36,M,Wraps,MOR,133.4,140,257.5,272.5,285,285,175,-187.5,-187.5,175,270,-290,-290,270,730,3
Heath Beougher,SBD,37,M,Wraps,MOR,139.6,140,150,170,-192.5,170,165,-175,175,175,200,230,-240,230,575,4
Daniel Bell #1,SBD,30,M,Wraps,MOR,172.5,140+,435,-460,460,460,227.5,240,245,245,365,385,,385,1090,1
JP Carroll,SBD,37,M,Wraps,MOR,171,140+,402.5,425,,425,-240,247.5,,247.5,330,352.5,362.5,362.5,1035,2
John Gilmore,SBD,37,M,Wraps,MOR,154,140+,250,272.5,282.5,282.5,137.5,152.5,162.5,162.5,260,262.5,-282.5,262.5,707.5,3
Sokratis Boutos,SBD,28,M,Wraps,MOR,163.6,140+,175,202.5,-220,202.5,115,125,-140,125,182.5,197.5,212.5,212.5,540,4
Dominic Calvano,SBD,23,M,Multi-ply,MO,108.6,110,272.5,295,300,300,137.5,147.5,152.5,152.5,272.5,-287.5,-287.5,272.5,725,1
Ben Jones #4,D,40,M,Raw,MM1R,99.6,100,,,,,,,,,185,210,232.5,232.5,232.5,1
Ryan Feuerhammer,D,37,M,Raw,MSR,96.4,100,,,,,,,,,267.5,280,,280,280,1
Ben Jones #4,D,40,M,Raw,MM1R-AD,99.6,100,,,,,,,,,185,210,232.5,232.5,232.5,1
Jamie Holmberg,SBD,19,F,Wraps,FT3R,73.4,75,110,125,135,135,47.5,55,-62.5,55,125,135,145,145,335,1
Rachel Vaughn,SBD,20,F,Wraps,FJR,59.6,60,97.5,107.5,-117.5,107.5,47.5,52.5,-57.5,52.5,110,117.5,125,125,285,1
Morgan Houk,SBD,24,F,Wraps,FOR,58.4,60,102.5,110,117.5,117.5,47.5,52.5,55,55,87.5,100,-105,100,272.5,1
Jaci Schroeder,SBD,30,F,Wraps,FOR,64.6,67.5,105,110,115,115,55,60,-62.5,60,142.5,-150,150,150,325,1
Brandi Lloyd,SBD,24,F,Wraps,FOR,66.6,67.5,95,102.5,115,115,52.5,57.5,62.5,62.5,97.5,105,115,115,292.5,2
Daloris Sylvester,SBD,24,F,Wraps,FOR,75,75,120,130,-142.5,130,65,72.5,-80,72.5,122.5,132.5,142.5,142.5,345,1
Brittany Demmer,SBD,25,F,Wraps,FOR,80.4,82.5,150,-165,-165,150,70,-80,-80,70,180,-192.5,-192.5,180,400,1
Leah Davis #1,SBD,,F,Raw,FOR,102,90+,-230,230,245,245,112.5,125,-130,125,220,227.5,-235,227.5,597.5,1
Justine Johnson,SBD,29,F,Wraps,FOR,104,90+,102.5,112.5,122.5,122.5,67.5,77.5,85,85,122.5,140,160,160,367.5,2
Victoria Wittmer,SBD,39,F,Wraps,FSR-AD,137,90+,120,127.5,137.5,137.5,62.5,67.5,75,75,137.5,142.5,150,150,362.5,1
Stephanie Thies,SBD,38,F,Wraps,FOR-AD,52,52,102.5,-112.5,112.5,112.5,57.5,62.5,-65,62.5,97.5,105,-110,105,280,1
Rachael Hallstrom,SBD,26,F,Wraps,FOR-AD,67.4,67.5,80,95,-110,95,42.5,55,-62.5,55,102.5,115,125,125,275,1
Brittany Demmer,SBD,25,F,Wraps,FOR-AD,80.4,82.5,150,-165,-165,150,70,-80,-80,70,180,-192.5,-192.5,180,400,1
Larry Soderberg,SBD,66,M,Wraps,MM6R,97.6,100,152.5,162.5,165,165,157.5,162.5,165,165,207.5,-220,,207.5,537.5,1
Ben Jones #4,SBD,40,M,Wraps,MM1R,99.6,100,-185,185,202.5,202.5,-105,-125,-132.5,,185,210,232.5,232.5,,DQ
Colton Magers,SBD,23,M,Wraps,MJR,94.2,100,272.5,-295,295,295,167.51,182.5,-192.5,182.5,265,280,-287.5,280,757.5,1
Derik Bailey,SBD,21,M,Wraps,MJR,89.2,90,237.5,250,257.5,257.5,127.5,135,145,145,242.5,252.5,272.5,272.5,675,2
Alex Binkly,SBD,23,M,Wraps,MJR,89.2,90,207.5,227.5,-237.5,227.5,140,147.51,160,160,207.5,230,242.5,242.5,630,3
Nicholas Andreasen,SBD,22,M,Wraps,MJR,108,110,250,265,275,275,145,157.5,165,165,210,227.5,242.5,242.5,682.5,4
Jacob Clark,SBD,21,M,Wraps,MJR,99.4,100,220,232.5,235,235,127.5,137.5,140,140,232.5,247.5,-250,247.5,622.5,5
Erik Swanson,SBD,22,M,Wraps,MJR,121,125,185,197.5,207.5,207.5,132.5,140,-142.5,140,192.5,210,-225,210,557.5,6
Cam Harshbarger,SBD,21,M,Wraps,MJR,82.4,82.5,130,147.51,160,160,90,97.5,-102.5,97.5,182.5,-200,200,200,457.5,7
Drake Hadacek,SBD,18,M,Wraps,MT3R,72.6,75,170,185,,185,102.5,110,112.5,112.5,217.5,235,,235,532.5,1
George Funk,SBD,19,M,Wraps,MT3R,94.2,100,200,210,217.5,217.5,115,122.5,-127.5,122.5,227.5,240,250,250,590,2
Andrew Leydet,SBD,19,M,Wraps,MT3R,88.6,90,182.5,195,202.5,202.5,-130,132.5,145,145,192.5,205,215,215,562.5,3
Theodore Sergesketter,SBD,19,M,Wraps,MT3R,87.2,90,165,175,182.5,182.5,100,110,115,115,227.5,245,-265,245,542.5,4
Ashtin Van Gorden,SBD,17,M,Wraps,MT2R,106,110,-215,220,-227.5,220,122.5,130,-135,130,205,215,-227.5,215,565,1
Taylor Boelter,SBD,16,M,Wraps,MT2R,89.6,90,160,170,-195,170,95,102.5,110,110,195,-210,210,210,490,2
Curt Shaver,SBD,49,M,Wraps,MM2R-AD,96.6,100,165,182.5,197.5,197.5,165,177.5,-182.5,177.5,217.5,242.5,-257.5,242.5,617.5,1
Ben Jones #4,SBD,40,M,Wraps,MM1R-AD,99.6,100,-185,185,202.5,202.5,-105,-125,-132.5,,185,210,232.5,232.5,,DQ
Jeremy Grimm,SBD,36,M,Wraps,MSR-AD,99.8,100,165,185,200,200,142.5,150,157.5,157.5,210,230,247.5,247.5,605,1
Jay Kortemeyer,SBD,21,M,Wraps,MJR-AD,81.8,82.5,-190,-190,-190,,,,,,,,,,,DQ
Mitch Demmer,SBD,18,M,Wraps,MT3R-AD,137,140,205,215,227.5,227.5,127.5,137.5,145,145,205,215,227.5,227.5,600,1
Courtney Albritton,BD,38,F,Raw,FSR-AD,105.8,90+,,,,,62.5,-67.5,67.5,67.5,127.5,140,-147.5,140,207.5,1
