Division,WeightClassKg,Place,Name,Team,BodyweightKg,Best3SquatKg,Best3BenchKg,Best3DeadliftKg,TotalKg,Equipment,Event,Sex
Boys,55.79,1,Juan Torres #3,Carrollton Turner,51.8,136.08,68.04,129.27,333.39,Single-ply,SBD,M
Boys,51.71,2,Patrick Heidelberg,Carrollton Creekview,51.3,68.04,58.97,90.72,217.72,Single-ply,SBD,M
Boys,55.79,1,Adam Tipps,Lake Dallas,55.34,99.79,56.7,111.13,267.62,Single-ply,SBD,M
Boys,59.87,1,Micah Ramsey,Lake Dallas,59.33,104.33,63.5,124.74,292.57,Single-ply,SBD,M
Boys,59.87,2,Porter Bryson,Lake Dallas,56.93,83.91,52.16,90.72,226.8,Single-ply,SBD,M
Boys,67.13,1,Fernando Perez,Carrollton Turner,65.41,165.56,65.77,174.63,405.97,Single-ply,SBD,M
Boys,67.13,2,Jacob Galloway,Lake Dallas,65.09,136.08,90.72,151.95,378.75,Single-ply,SBD,M
Boys,67.13,3,Alan Garcia,Carrollton Turner,64.32,158.76,65.77,145.15,369.68,Single-ply,SBD,M
Boys,67.13,4,Manuel Anzures,Carrollton Creekview,63.78,131.54,86.18,142.88,360.61,Single-ply,SBD,M
Boys,67.13,5,Garren Schantz,Lake Dallas,66.27,104.33,68.04,115.67,288.03,Single-ply,SBD,M
Boys,74.84,1,Eric Rosales,Carrollton Turner,73.66,183.7,92.99,222.26,498.95,Single-ply,SBD,M
Boys,74.84,2,Davian Carter,Carrollton Ranchview,74.71,188.24,113.4,170.1,471.74,Single-ply,SBD,M
Boys,74.84,3,Bruttus Walters,Carrollton Turner,73.26,172.37,102.06,185.97,460.4,Single-ply,SBD,M
Boys,74.84,4,Jaylon Norman,Carrollton Ranchview,72.94,176.9,99.79,170.1,446.79,Single-ply,SBD,M
Boys,74.84,5,Courtenay Holder,Lake Dallas,73.03,165.56,90.72,170.1,426.38,Single-ply,SBD,M
Boys,74.84,6,Robert Anderson,Lake Dallas,72.85,142.88,90.72,158.76,392.36,Single-ply,SBD,M
Boys,74.84,7,Salomon Batres,Carrollton Turner,74.34,149.69,79.38,149.69,378.75,Single-ply,SBD,M
Boys,74.84,8,Darryl Finch,Carrollton Creekview,70.81,192.78,102.06,,294.84,Single-ply,SB,M
Boys,74.84,9,Jarred Blowby,Carrollton Ranchview,70.62,97.52,65.77,102.06,265.35,Single-ply,SBD,M
Boys,82.1,1,Darius Heath,Carrollton Ranchview,80.2,174.63,120.2,192.78,487.61,Single-ply,SBD,M
Boys,82.1,2,Kadin Daou,Carrollton Creekview,81.92,156.49,102.06,156.49,415.04,Single-ply,SBD,M
Boys,82.1,3,Uriel Cadena,Carrollton Turner,81.74,145.15,90.72,158.76,394.63,Single-ply,SBD,M
Boys,82.1,4,Damion Hyde,Lake Dallas,79.02,124.74,81.65,136.08,342.46,Single-ply,SBD,M
Boys,82.1,5,Dandre Hawkins,Carrollton Ranchview,81.92,111.13,70.31,124.74,306.17,Single-ply,SBD,M
Boys,82.1,6,Nic Villegas,Carrollton Creekview,75.93,113.4,58.97,127.01,299.37,Single-ply,SBD,M
Boys,89.81,1,Jordan Simpson,Carrollton Creekview,83.96,185.97,124.74,188.24,498.95,Single-ply,SBD,M
Boys,99.79,2,Hunter Blanton,Lake Dallas,90.04,165.56,106.59,190.51,462.66,Single-ply,SBD,M
Boys,99.79,3,Carlos De La Fuente,Carrollton Turner,90.04,142.88,90.72,158.76,392.36,Single-ply,SBD,M
Boys,89.81,4,Devin Gardner,Carrollton Ranchview,86.64,149.69,61.23,176.9,387.82,Single-ply,SBD,M
Boys,89.81,5,Cash Latta,Carrollton Creekview,83.14,115.67,81.65,113.4,310.71,Single-ply,SBD,M
Boys,89.81,6,Jayson Ginn,Carrollton Ranchview,85.05,97.52,63.5,113.4,274.42,Single-ply,SBD,M
Boys,99.79,1,Jacob Biggerstaff,Lake Dallas,93.71,147.42,106.59,188.24,442.25,Single-ply,SBD,M
Boys,99.79,2,David Muñoz,Carrollton Turner,98.66,167.83,97.52,170.1,435.45,Single-ply,SBD,M
Boys,99.79,3,Sam Ward,Carrollton Ranchview,94.89,170.1,92.99,170.1,433.18,Single-ply,SBD,M
Boys,99.79,4,Taylor Wilson,Carrollton Turner,96.98,147.42,83.91,163.29,394.63,Single-ply,SBD,M
Boys,99.79,5,Major Walker,Carrollton Creekview,96.34,124.74,86.18,145.15,356.07,Single-ply,SBD,M
Boys,99.79,6,Harvey Lusk,Lake Dallas,97.84,136.08,,147.42,283.5,Single-ply,SD,M
Boys,109.77,1,Ramar Saldana,Carrollton Turner,102.47,204.12,113.4,174.63,492.15,Single-ply,SBD,M
Boys,109.77,2,David Stanley,Lake Dallas,106.5,176.9,124.74,174.63,476.27,Single-ply,SBD,M
Boys,109.77,3,Drew Hoffman,Lake Dallas,103.42,161.03,124.74,170.1,455.86,Single-ply,SBD,M
Boys,109.77,4,Marques Bryant,Lake Dallas,101.65,142.88,111.13,170.1,424.11,Single-ply,SBD,M
Boys,109.77,5,Lorenzo Sosa,Carrollton Creekview,103.01,151.95,102.06,142.88,396.89,Single-ply,SBD,M
Boys,124.74,6,Mario Cazares,Carrollton Ranchview,109.95,136.08,92.99,163.29,392.36,Single-ply,SBD,M
Boys,124.74,1,Tristan Bennett,Carrollton Ranchview,110.99,181.44,95.25,195.04,471.74,Single-ply,SBD,M
Boys,124.74,2,Mauricio Guardado,Carrollton Turner,114.08,183.7,74.84,181.44,439.98,Single-ply,SBD,M
Boys,124.74,3,Cameron Mendoza,Carrollton Ranchview,121.65,149.69,99.79,190.51,439.98,Single-ply,SBD,M
Boys,124.74,4,Ethan Eismont,Carrollton Ranchview,111.67,158.76,74.84,179.17,412.77,Single-ply,SBD,M
Boys,124.74,5,Ky'Lon Counts,Carrollton Ranchview,110.86,129.27,95.25,140.61,365.14,Single-ply,SBD,M
Boys,124.74+,1,Seth Miller,Carrollton Creekview,143.88,215.46,122.47,197.31,535.24,Single-ply,SBD,M
Boys,124.74+,2,Manuel Flores,Carrollton Turner,128.46,183.7,104.33,183.7,471.74,Single-ply,SBD,M
Boys,124.74+,3,Austin Livingston,Lake Dallas,162.34,151.95,90.72,163.29,405.97,Single-ply,SBD,M
Boys,124.74+,4,Chris Johnson #12,Lake Dallas,150.05,158.76,,154.22,312.98,Single-ply,SD,M
