Division,WeightClassKg,Place,Name,Team,BodyweightKg,Best3SquatKg,Best3BenchKg,Best3DeadliftKg,TotalKg,Equipment,Event,Sex
Boys,51.71,1,Angel Rico,Kennedale,51.53,149.69,72.57,161.03,383.29,Single-ply,SBD,M
Boys,51.71,2,Brandon Horst,Sanger,50.17,154.22,79.38,147.42,381.02,Single-ply,SBD,M
Boys,51.71,3,Noah Hernandez,Lake Worth,51.71,156.49,79.38,145.15,381.02,Single-ply,SBD,M
Boys,51.71,4,Noah Duvall,Springtown,51.17,131.54,86.18,145.15,362.87,Single-ply,SBD,M
Boys,51.71,5,Shawn Sherpard,Carrollton Ranchview,50.17,120.2,79.38,149.69,349.27,Single-ply,SBD,M
Boys,51.71,6,Michael Williams,Decatur,51.17,127.01,86.18,136.08,349.27,Single-ply,SBD,M
Boys,51.71,7,Anthony Henry,Gainesville,50.17,113.4,45.36,120.2,278.96,Single-ply,SBD,M
Boys,51.71,8,Mark Mayes,Aubrey,50.08,86.18,52.16,99.79,238.14,Single-ply,SBD,M
Boys,51.71,9,James Washington,Carrollton Ranchview,48.17,90.72,43.09,102.06,235.87,Single-ply,SBD,M
Boys,51.71,10,Davis McAlister,Aubrey,50.53,52.16,61.23,29.48,142.88,Single-ply,SBD,M
Boys,51.71,DQ,Carter McFadden,Anna,49.9,133.81,,,,Single-ply,SBD,M
Boys,55.79,1,Lane Anthony,Nevada Community,53.98,170.1,70.31,174.63,415.04,Single-ply,SBD,M
Boys,55.79,2,Joe Cullum,Kennedale,55.43,172.37,92.99,149.69,415.04,Single-ply,SBD,M
Boys,55.79,3,Nikolas Fraire,Gainesville,53.34,142.88,74.84,172.37,390.09,Single-ply,SBD,M
Boys,55.79,4,Justin Gibby,Aubrey,54.7,149.69,68.04,163.29,381.02,Single-ply,SBD,M
Boys,55.79,5,Landry Hoskins,Sanger,55.61,154.22,72.57,154.22,381.02,Single-ply,SBD,M
Boys,55.79,6,David Ramos,Mineral Wells,55.79,129.27,65.77,140.61,335.66,Single-ply,SBD,M
Boys,55.79,7,Garrett Upshaw,Decatur,54.61,115.67,79.38,136.08,331.12,Single-ply,SBD,M
Boys,55.79,8,Mason Vinson,Sanger,54.34,124.74,58.97,124.74,308.44,Single-ply,SBD,M
Boys,55.79,9,Victor Campuzano,Krum,55.79,102.06,58.97,129.27,290.3,Single-ply,SBD,M
Boys,55.79,10,Camden Richards,Mineral Wells,54.98,102.06,49.9,136.08,288.03,Single-ply,SBD,M
Boys,55.79,11,Cade Dudley,Celina,54.25,83.91,70.31,120.2,274.42,Single-ply,SBD,M
Boys,55.79,12,Laurence Nash,Carrollton Ranchview,54.7,88.45,65.77,120.2,274.42,Single-ply,SBD,M
Boys,59.87,1,Dalton Waller,Princeton,57.7,170.1,92.99,188.24,451.32,Single-ply,SBD,M
Boys,59.87,2,Xavier Parker,Mineral Wells,59.24,156.49,95.25,176.9,428.64,Single-ply,SBD,M
Boys,59.87,3,Alexis Rodriguez #8,Decatur,59.87,156.49,90.72,174.63,421.84,Single-ply,SBD,M
Boys,59.87,4,Holden Fry,Springtown,58.97,158.76,77.11,172.37,408.23,Single-ply,SBD,M
Boys,59.87,5,Perry Simpson,Melissa,59.24,156.49,79.38,163.29,399.16,Single-ply,SBD,M
Boys,59.87,6,Jesus Ponce,Frisco Lebanon Trail,57.52,149.69,72.57,170.1,392.36,Single-ply,SBD,M
Boys,59.87,7,Chance Cruz,Argyle,58.42,142.88,72.57,174.63,390.09,Single-ply,SBD,M
Boys,59.87,8,Jahlian Tate,Graham,57.06,136.08,74.84,163.29,374.21,Single-ply,SBD,M
Boys,59.87,9,Joel Rayos,Springtown,58.69,133.81,79.38,151.95,365.14,Single-ply,SBD,M
Boys,59.87,10,Zack Carter,Sanger,59.69,145.15,68.04,145.15,358.34,Single-ply,SBD,M
Boys,59.87,11,Nathan Trammell,Aubrey,57.97,129.27,72.57,138.35,340.19,Single-ply,SBD,M
Boys,59.87,DQ,Jose Ramirez #12,Castleberry,59.69,,,,,Single-ply,SBD,M
Boys,67.13,1,Mike Acevedo,Anna,64.5,208.65,124.74,190.51,523.9,Single-ply,SBD,M
Boys,67.13,2,Nicholas Reid,Anna,65.59,222.26,102.06,197.31,521.63,Single-ply,SBD,M
Boys,67.13,3,Braxton Lediaev,Kennedale,66.59,185.97,102.06,217.72,505.76,Single-ply,SBD,M
Boys,67.13,4,Angel Garza,Decatur,63.78,195.04,106.59,197.31,498.95,Single-ply,SBD,M
Boys,67.13,5,Mario Discua,Nevada Community,66.41,183.7,124.74,188.24,496.68,Single-ply,SBD,M
Boys,67.13,6,Omar Villegas,Melissa,65.77,190.51,108.86,188.24,487.61,Single-ply,SBD,M
Boys,67.13,7,Eddrick Hampton,Fort Worth Diamond Hill-Jarvis,65.05,181.44,97.52,188.24,467.2,Single-ply,SBD,M
Boys,67.13,8,Tyler Aguilar,Kennedale,66.04,181.44,92.99,181.44,455.86,Single-ply,SBD,M
Boys,67.13,9,Jose de la Cerda,Bridgeport,65.32,172.37,99.79,181.44,453.59,Single-ply,SBD,M
Boys,67.13,10,Luke Sciba,Aubrey,67.04,170.1,106.59,176.9,453.59,Single-ply,SBD,M
Boys,67.13,11,Michael Cole,Bridgeport,66.95,161.03,99.79,190.51,451.32,Single-ply,SBD,M
Boys,67.13,DQ,Jordan Hogg,Frisco Lebanon Trail,63.5,181.44,,,,Single-ply,SBD,M
Boys,74.84,1,Leo Sustaita,Gainesville,72.67,254.01,145.15,226.8,625.96,Single-ply,SBD,M
Boys,74.84,2,Brock Martin,Argyle,73.12,229.06,129.27,238.14,596.47,Single-ply,SBD,M
Boys,74.84,3,Troy McKnight,Carrollton Ranchview,74.84,210.92,108.86,213.19,532.97,Single-ply,SBD,M
Boys,74.84,4,Josue Hernandez,Anna,69.13,190.51,124.74,185.97,501.22,Single-ply,SBD,M
Boys,74.84,5,Jared Singleton,Mineral Wells,72.48,199.58,102.06,195.04,496.68,Single-ply,SBD,M
Boys,74.84,6,Luis Flores,Kennedale,73.94,195.04,104.33,195.04,494.42,Single-ply,SBD,M
Boys,74.84,7,Brendene Ramos,Castleberry,71.67,170.1,131.54,172.37,474,Single-ply,SBD,M
Boys,74.84,8,James Craven,Iowa Park,74.57,163.29,102.06,206.38,471.74,Single-ply,SBD,M
Boys,74.84,9,James Purkins,Nevada Community,73.57,174.63,106.59,185.97,467.2,Single-ply,SBD,M
Boys,74.84,10,Lee Hubbard,Gainesville,73.94,181.44,113.4,158.76,453.59,Single-ply,SBD,M
Boys,74.84,DQ,Erik Gaspar,Gainesville,73.03,215.46,,,,Single-ply,SBD,M
Boys,74.84,DQ,Devin Howery,Bonham,73.94,,,,,Single-ply,SBD,M
Boys,82.1,1,Chon Hernandez,Gainesville,77.11,265.35,154.22,242.67,662.24,Single-ply,SBD,M
Boys,82.1,2,Austin Ballard,Bonham,79.92,240.4,145.15,215.46,601.01,Single-ply,SBD,M
Boys,82.1,3,Nick Golden,Argyle,81.1,210.92,95.25,269.89,576.06,Single-ply,SBD,M
Boys,82.1,4,David Cancino,Gainesville,80.74,226.8,140.61,201.85,569.26,Single-ply,SBD,M
Boys,82.1,5,Aiden Straub,Bonham,80.83,229.06,113.4,224.53,566.99,Single-ply,SBD,M
Boys,82.1,6,Jonah Maston,Mineral Wells,81.83,215.46,129.27,222.26,566.99,Single-ply,SBD,M
Boys,82.1,7,William Goines,Gainesville,79.56,226.8,115.67,219.99,562.45,Single-ply,SBD,M
Boys,82.1,8,Syler Saenz,Sanger,78.47,206.38,122.47,224.53,553.38,Single-ply,SBD,M
Boys,82.1,9,Isaac Graham,Princeton,80.74,190.51,115.67,208.65,514.83,Single-ply,SBD,M
Boys,82.1,10,Naton Edwards,Argyle,80.1,183.7,106.59,217.72,508.02,Single-ply,SBD,M
Boys,82.1,11,Colby White,Bridgeport,82.1,185.97,97.52,210.92,494.42,Single-ply,SBD,M
Boys,82.1,12,Jadon Stringfellow,Burkburnett,81.28,179.17,108.86,185.97,474,Single-ply,SBD,M
Boys,89.81,1,Austin Dickson,Anna,88.63,256.28,167.83,210.92,635.03,Single-ply,SBD,M
Boys,89.81,2,Mark Thomas,Decatur,82.83,217.72,122.47,265.35,605.55,Single-ply,SBD,M
Boys,89.81,3,Billy Goff,Sanger,82.92,226.8,149.69,229.06,605.55,Single-ply,SBD,M
Boys,89.81,4,Guillermo Pando,Springtown,88.18,233.6,145.15,219.99,598.74,Single-ply,SBD,M
Boys,89.81,5,Spencer May,Anna,88.36,222.26,142.88,226.8,591.94,Single-ply,SBD,M
Boys,89.81,6,Brian Chapa,Castleberry,87.54,201.85,142.88,231.33,576.06,Single-ply,SBD,M
Boys,89.81,7,Mario Cruz,Castleberry,86.64,204.12,145.15,217.72,566.99,Single-ply,SBD,M
Boys,89.81,8,Colton Wilson,Nevada Community,87.36,226.8,108.86,217.72,553.38,Single-ply,SBD,M
Boys,89.81,9,Daniel Lackey,Krum,89.27,195.04,124.74,226.8,546.58,Single-ply,SBD,M
Boys,89.81,10,Luke Porter,Bonham,86.91,215.46,120.2,204.12,539.77,Single-ply,SBD,M
Boys,89.81,11,Ryan Goodwin,Mineral Wells,85.64,204.12,133.81,199.58,537.51,Single-ply,SBD,M
Boys,89.81,DQ,Klayton Reed,Graham,89.18,244.94,149.69,,,Single-ply,SBD,M
Boys,99.79,1,Ricardo Pena #2,Kennedale,97.98,260.82,172.37,242.67,675.85,Single-ply,SBD,M
Boys,99.79,2,Cameron Hanna,Kennedale,97.52,267.62,133.81,272.16,673.58,Single-ply,SBD,M
Boys,99.79,3,Hunter Bagley,Iowa Park,99.16,267.62,154.22,251.74,673.58,Single-ply,SBD,M
Boys,99.79,4,Ja'Bray Young,Melissa,92.8,249.48,145.15,226.8,621.42,Single-ply,SBD,M
Boys,99.79,5,Isaiah Baeza,Mineral Wells,96.25,256.28,129.27,192.78,578.33,Single-ply,SBD,M
Boys,99.79,6,Matteo Carrizales,Decatur,93.62,210.92,142.88,222.26,576.06,Single-ply,SBD,M
Boys,99.79,7,Brandon Kiernan,Kennedale,95.62,219.99,142.88,210.92,573.79,Single-ply,SBD,M
Boys,99.79,8,Devin Miller,Gainesville,93.26,226.8,136.08,199.58,562.45,Single-ply,SBD,M
Boys,99.79,9,Mikael Conn,Aubrey,95.8,206.38,127.01,183.7,517.1,Single-ply,SBD,M
Boys,99.79,DQ,Gonsalo Ibarra,Bridgeport,93.8,,,,,Single-ply,SBD,M
Boys,99.79,DQ,Brett Carter,Sanger,92.53,,,,,Single-ply,SBD,M
Boys,109.77,1,Blake Tredway,Anna,107.41,322.05,170.1,251.74,743.89,Single-ply,SBD,M
Boys,109.77,2,Asael Lagos,Gainesville,105.51,276.69,147.42,281.23,705.34,Single-ply,SBD,M
Boys,109.77,3,Alejandro Rangel,Celina,109.5,306.17,154.22,222.26,682.66,Single-ply,SBD,M
Boys,109.77,4,Owen Petrie,Argyle,107.68,229.06,136.08,249.48,614.62,Single-ply,SBD,M
Boys,109.77,5,Tyler Edington,Gainesville,102.06,244.94,149.69,217.72,612.35,Single-ply,SBD,M
Boys,109.77,6,Joesph Aguilar,Graham,106.5,235.87,147.42,226.8,610.08,Single-ply,SBD,M
Boys,109.77,7,Chris Serwanga,Kennedale,101.7,242.67,131.54,231.33,605.55,Single-ply,SBD,M
Boys,109.77,8,Rasheed Readus,Anna,102.33,219.99,136.08,249.48,605.55,Single-ply,SBD,M
Boys,109.77,9,Justin Shipman,Castleberry,103.78,235.87,154.22,213.19,603.28,Single-ply,SBD,M
Boys,109.77,10,Brandon Hinojos,Mineral Wells,103.15,256.28,113.4,226.8,596.47,Single-ply,SBD,M
Boys,109.77,11,Albino Torres,Gainesville,105.32,231.33,117.93,222.26,571.53,Single-ply,SBD,M
Boys,109.77,DQ,Ismael Banda,Castleberry,107.86,217.72,,,,Single-ply,SBD,M
Boys,124.74,1,Daniel Dowling,Bonham,111.49,308.44,181.44,222.26,712.14,Single-ply,SBD,M
Boys,124.74,2,Wilson Tran,Gainesville,116.48,283.5,163.29,240.4,687.19,Single-ply,SBD,M
Boys,124.74,3,Shane Huizenga,Burkburnett,114.58,247.21,142.88,242.67,632.76,Single-ply,SBD,M
Boys,124.74,4,Victor Garcia,Kennedale,115.03,249.48,142.88,208.65,601.01,Single-ply,SBD,M
Boys,124.74,5,Jeremiah Stanley,Iowa Park,112.58,217.72,158.76,215.46,591.94,Single-ply,SBD,M
Boys,124.74,6,Jack Atkins,Gainesville,110.04,235.87,127.01,226.8,589.67,Single-ply,SBD,M
Boys,124.74,7,Keaton Jordan,Decatur,120.2,233.6,136.08,163.29,532.97,Single-ply,SBD,M
Boys,124.74,8,Kyson Hoskins,Burkburnett,114.31,206.38,104.33,210.92,521.63,Single-ply,SBD,M
Boys,124.74,9,Marc Guerra,Burkburnett,124.65,185.97,138.35,181.44,505.76,Single-ply,SBD,M
Boys,124.74,10,Juan Salinas #1,Lake Worth,121.47,204.12,117.93,165.56,487.61,Single-ply,SBD,M
Boys,124.74,11,Jayton Polley,Argyle,110.59,172.37,111.13,195.04,478.54,Single-ply,SBD,M
Boys,124.74+,1,Austin Norton,Nevada Community,126.1,374.21,204.12,260.82,839.15,Single-ply,SBD,M
Boys,124.74+,2,Caleb Jennings,Bridgeport,136.53,290.3,195.04,263.08,748.43,Single-ply,SBD,M
Boys,124.74+,3,Miguel Rodriguez,Gainesville,145.6,306.17,181.44,238.14,725.75,Single-ply,SBD,M
Boys,124.74+,4,Alexis Jimenez,Lake Worth,128.55,272.16,188.24,242.67,703.07,Single-ply,SBD,M
Boys,124.74+,5,Eric Stonechek,Bridgeport,134.81,272.16,185.97,240.4,698.53,Single-ply,SBD,M
Boys,124.74+,6,Kenson Vance,Decatur,132.63,249.48,165.56,224.53,639.57,Single-ply,SBD,M
Boys,124.74+,7,Gabe Lutz,Nevada Community,128.28,272.16,181.44,179.17,632.76,Single-ply,SBD,M
Boys,124.74+,8,Brenden Gonzalez,Gainesville,144.97,272.16,117.93,233.6,623.69,Single-ply,SBD,M
Boys,124.74+,9,James Manuel,Gainesville,157.12,233.6,149.69,226.8,610.08,Single-ply,SBD,M
Boys,124.74+,10,Zander Adams,Mineral Wells,126.19,260.82,131.54,192.78,585.13,Single-ply,SBD,M
Boys,124.74+,11,Cedric Harris,Kennedale,130.54,219.99,111.13,249.48,580.6,Single-ply,SBD,M
Boys,124.74+,12,Brian Blackwell,Melissa,131.09,231.33,127.01,197.31,555.65,Single-ply,SBD,M
Boys,,NS,Sam Hamidi,Frisco Lebanon Trail,,,,,,Single-ply,SBD,M
Boys,,NS,Harrison Cornelius,Anna,,,,,,Single-ply,SBD,M
