Division,WeightClassKg,Place,Name,Team,BodyweightKg,Best3SquatKg,Best3BenchKg,Best3DeadliftKg,TotalKg,Equipment,Event,Sex
Varsity,55.79,1,John Clerihew,Olney,51.89,145.15,83.91,156.49,385.55,Single-ply,SBD,M
Varsity,51.71,2,Dustin Richardson,Lake Worth,50.89,117.93,63.5,170.1,351.53,Single-ply,SBD,M
Varsity,55.79,3,Aaron Gonzales,Graham,51.89,133.81,63.5,129.27,326.59,Single-ply,SBD,M
Varsity,55.79,4,Cameron Calame,Graham,51.94,117.93,79.38,120.2,317.51,Single-ply,SBD,M
Varsity,55.79,5,Trevor Richard,Chico,51.8,113.4,61.23,120.2,294.84,Single-ply,SBD,M
Varsity,51.71,6,Troy Johnson,Chico,49.8,104.33,45.36,136.08,285.76,Single-ply,SBD,M
Varsity,51.71,7,Dillon Harvey,Mineral Wells,51.62,102.06,52.16,108.86,263.08,Single-ply,SBD,M
Varsity,51.71,8,Luis Berumen,Strawn,51.71,104.33,47.63,104.33,256.28,Single-ply,SBD,M
Varsity,51.71,9,Marty Berumen,Strawn,48.67,102.06,52.16,97.52,251.74,Single-ply,SBD,M
Varsity,51.71,10,Joey Trevino,Petrolia,47.9,74.84,38.56,83.91,197.31,Single-ply,SBD,M
Varsity,51.71,DQ,Angel Berumen,Strawn,51.48,,,,,Single-ply,SBD,M
Varsity,55.79,DQ,Cameron McClendon,Perrin-Whitt,51.89,90.72,,104.33,,Single-ply,SBD,M
Varsity,55.79,1,Weston Decker,Peaster,54.7,136.08,72.57,154.22,362.87,Single-ply,SBD,M
Varsity,55.79,2,Joey Salinas #1,Jacksboro,53.8,138.35,72.57,142.88,353.8,Single-ply,SBD,M
Varsity,55.79,3,Dillon Gonzales,Graham,55.79,145.15,72.57,124.74,342.46,Single-ply,SBD,M
Varsity,55.79,4,Tristan Zamarripa,Lake Worth,54.07,117.93,70.31,140.61,328.85,Single-ply,SBD,M
Varsity,55.79,5,Michael Henderson,Santo,52.8,90.72,43.09,99.79,233.6,Single-ply,SBD,M
Varsity,59.87,1,Walt Harden,Peaster,59.87,190.51,115.67,195.04,501.22,Single-ply,SBD,M
Varsity,59.87,2,Harper Mays,Peaster,59.33,161.03,92.99,163.29,417.3,Single-ply,SBD,M
Varsity,59.87,3,Josiah Cansler,Perrin-Whitt,58.01,158.76,74.84,156.49,390.09,Single-ply,SBD,M
Varsity,59.87,4,Taylor Ross,Nocona,58.06,138.35,86.18,161.03,385.55,Single-ply,SBD,M
Varsity,59.87,5,Luis Flores,Chico,59.6,129.27,72.57,140.61,342.46,Single-ply,SBD,M
Varsity,67.13,6,Dylan Horton,Graham,60.06,131.54,79.38,127.01,337.93,Single-ply,SBD,M
Varsity,59.87,7,Bobby Wells,Strawn,59.6,102.06,74.84,138.35,315.25,Single-ply,SBD,M
Varsity,59.87,8,Ivan Karabanoff,Peaster,58.42,115.67,68.04,122.47,306.17,Single-ply,SBD,M
Varsity,59.87,9,Isaac Velasquez,Strawn,58.47,111.13,54.43,136.08,301.64,Single-ply,SBD,M
Varsity,59.87,10,Darrion Riggs,Chico,59.78,106.59,58.97,124.74,290.3,Single-ply,SBD,M
Varsity,67.13,11,Donald Funk,Lake Worth,60.06,97.52,54.43,129.27,281.23,Single-ply,SBD,M
Varsity,59.87,12,Ty West,Perrin-Whitt,58.06,102.06,58.97,104.33,265.35,Single-ply,SBD,M
Varsity,67.13,1,Randy Tucker,Perrin-Whitt,67.09,181.44,102.06,176.9,460.4,Single-ply,SBD,M
Varsity,67.13,2,Juan Martinez,Graham,64.05,170.1,113.4,165.56,449.06,Single-ply,SBD,M
Varsity,67.13,3,Zane Schrader,Olney,64.32,181.44,102.06,165.56,449.06,Single-ply,SBD,M
Varsity,67.13,4,Dayne Read,Santo,65.5,165.56,102.06,163.29,430.91,Single-ply,SBD,M
Varsity,67.13,5,Nick Davila,Millsap,64.5,161.03,86.18,181.44,428.64,Single-ply,SBD,M
Varsity,67.13,6,Thomas Trice,Alvord,65.14,136.08,102.06,151.95,390.09,Single-ply,SBD,M
Varsity,74.84,7,Steven Blankenship,Graham,67.31,158.76,95.25,129.27,383.29,Single-ply,SBD,M
Varsity,67.13,8,Will Morath,Petrolia,65.86,142.88,86.18,149.69,378.75,Single-ply,SBD,M
Varsity,67.13,9,Josh Stelzer,Graham,66.68,133.81,83.91,147.42,365.14,Single-ply,SBD,M
Varsity,67.13,10,Clint Codling,Chico,64.23,131.54,72.57,158.76,362.87,Single-ply,SBD,M
Varsity,67.13,11,Reagan Brewer,Iowa Park,61.33,142.88,74.84,142.88,360.61,Single-ply,SBD,M
Varsity,67.13,12,Jesse Herd,Jacksboro,65.95,133.81,79.38,147.42,360.61,Single-ply,SBD,M
Varsity,67.13,13,Marcos Aviles,Mineral Wells,62.14,124.74,86.18,133.81,344.73,Single-ply,SBD,M
Varsity,67.13,14,Victor Segura,Chico,62.69,113.4,72.57,156.49,342.46,Single-ply,SBD,M
Varsity,67.13,15,Dalton Franklin,Lake Worth,66.13,106.59,74.84,161.03,342.46,Single-ply,SBD,M
Varsity,67.13,16,Spur Hearne,Graham,64.32,113.4,74.84,111.13,299.37,Single-ply,SBD,M
Varsity,67.13,17,Ricardo Vitela,Castleberry,66.32,113.4,61.23,124.74,299.37,Single-ply,SBD,M
Varsity,74.84,18,Ismael Garcia,Mineral Wells,67.22,124.74,58.97,115.67,299.37,Single-ply,SBD,M
Varsity,67.13,19,Tyler Byers,Chico,60.78,106.59,68.04,113.4,288.03,Single-ply,SBD,M
Varsity,67.13,20,Bryce Partlow,Santo,61.33,104.33,56.7,108.86,269.89,Single-ply,SBD,M
Varsity,67.13,DQ,Jace Taylor,Petrolia,62.51,97.52,,102.06,,Single-ply,SBD,M
Varsity,67.13,DQ,Jeff Newby,Alvord,65.14,,45.36,102.06,,Single-ply,SBD,M
Varsity,67.13,DQ,Rowdy Dunnam,Graham,64.59,156.49,,,,Single-ply,SBD,M
Varsity,74.84,1,Daniel Fielder,Mineral Wells,73.3,170.1,133.81,217.72,521.63,Single-ply,SBD,M
Varsity,74.84,2,Ramon Salazar,Jacksboro,73.3,210.92,111.13,183.7,505.76,Single-ply,SBD,M
Varsity,74.84,3,Dawson Hawthorne,Graham,72.94,199.58,122.47,181.44,503.49,Single-ply,SBD,M
Varsity,74.84,4,Justin Smith #20,Petrolia,73.66,195.04,108.86,195.04,498.95,Single-ply,SBD,M
Varsity,74.84,5,Will Cawley,Graham,72.94,188.24,106.59,190.51,485.34,Single-ply,SBD,M
Varsity,74.84,6,Leo Gonzalez,Mineral Wells,69.94,174.63,120.2,174.63,469.47,Single-ply,SBD,M
Varsity,74.84,7,Victor Velazquez,Chico,68.67,174.63,88.45,192.78,455.86,Single-ply,SBD,M
Varsity,82.1,8,Clay Brown,Millsap,75.02,156.49,122.47,163.29,442.25,Single-ply,SBD,M
Varsity,74.84,9,Dj Thomas,Jacksboro,73.57,185.97,90.72,158.76,435.45,Single-ply,SBD,M
Varsity,74.84,10,Alex Scallion,Castleberry,70.4,176.9,97.52,156.49,430.91,Single-ply,SBD,M
Varsity,74.84,11,Michael Elmore,Graham,73.94,165.56,111.13,154.22,430.91,Single-ply,SBD,M
Varsity,74.84,12,Tyler Sullivan,Petrolia,68.22,147.42,90.72,170.1,408.23,Single-ply,SBD,M
Varsity,74.84,13,Tyler Gay,Nocona,73.39,158.76,81.65,165.56,405.97,Single-ply,SBD,M
Varsity,74.84,14,Greg Roberts,Lake Worth,70.4,138.35,68.04,163.29,369.68,Single-ply,SBD,M
Varsity,74.84,15,Dawson Parrott,Olney,74.3,136.08,83.91,149.69,369.68,Single-ply,SBD,M
Varsity,74.84,16,Jeremy Williams,Chico,74.57,131.54,83.91,147.42,362.87,Single-ply,SBD,M
Varsity,74.84,17,Thomas Musgrave,Iowa Park,74.57,136.08,79.38,138.35,353.8,Single-ply,SBD,M
Varsity,74.84,18,Canyon Pritchard,Castleberry,72.85,136.08,77.11,131.54,344.73,Single-ply,SBD,M
Varsity,74.84,19,Shane Newsom,Perrin-Whitt,72.44,117.93,74.84,136.08,328.85,Single-ply,SBD,M
Varsity,74.84,20,Justin Wharff,Iowa Park,71.4,90.72,77.11,108.86,276.69,Single-ply,SBD,M
Varsity,74.84,21,Christopher Delk,Castleberry,72.48,102.06,70.31,104.33,276.69,Single-ply,SBD,M
Varsity,74.84,DQ,Parker Purvis,Strawn,74.84,,,,,Single-ply,SBD,M
Varsity,82.1,1,Kyle Saunders,Peaster,80.65,226.8,124.74,229.06,580.6,Single-ply,SBD,M
Varsity,82.1,2,Maxwell Dixon,Peaster,81.47,215.46,120.2,215.46,551.11,Single-ply,SBD,M
Varsity,82.1,3,Jesse Brown,Alvord,80.2,181.44,108.86,195.04,485.34,Single-ply,SBD,M
Varsity,82.1,4,Scott Wood,Mineral Wells,81.56,167.83,106.59,190.51,464.93,Single-ply,SBD,M
Varsity,82.1,5,Payton Wynn,Lake Worth,77.66,172.37,95.25,192.78,460.4,Single-ply,SBD,M
Varsity,82.1,6,Zak Elliott,Millsap,80.83,156.49,111.13,174.63,442.25,Single-ply,SBD,M
Varsity,82.1,7,Braylon Brooks,Graham,79.38,151.95,115.67,172.37,439.98,Single-ply,SBD,M
Varsity,82.1,8,Brandon Thompson,Jacksboro,78.65,165.56,83.91,176.9,426.38,Single-ply,SBD,M
Varsity,89.81,9,Jacob Fleming,Graham,82.28,174.63,90.72,161.03,426.38,Single-ply,SBD,M
Varsity,82.1,10,Austin Hansen,Jacksboro,76.2,151.95,81.65,154.22,387.82,Single-ply,SBD,M
Varsity,82.1,11,Shane Johnson,Millsap,78.11,154.22,83.91,149.69,387.82,Single-ply,SBD,M
Varsity,82.1,12,Zack Stumbaugh,Iowa Park,80.65,149.69,106.59,129.27,385.55,Single-ply,SBD,M
Varsity,82.1,13,Luke Bowling,Santo,77.29,117.93,70.31,181.44,369.68,Single-ply,SBD,M
Varsity,82.1,14,Bodie Cokendolpher,Petrolia,80.65,111.13,70.31,165.56,347,Single-ply,SBD,M
Varsity,82.1,15,Brandon Mobley,Iowa Park,80.47,97.52,72.57,102.06,272.16,Single-ply,SBD,M
Varsity,82.1,DQ,Robert Munoz,Lake Worth,80.47,167.83,,,,Single-ply,SBD,M
Varsity,82.1,DQ,Marquise Flint,Mineral Wells,78.74,120.2,,133.81,,Single-ply,SBD,M
Varsity,89.81,1,Ivan Garcia #2,Peaster,87.82,204.12,151.95,217.72,573.79,Single-ply,SBD,M
Varsity,89.81,2,Robert Jones,Mineral Wells,88.81,222.26,129.27,195.04,546.58,Single-ply,SBD,M
Varsity,89.81,3,Damien Aparicio,Mineral Wells,87.82,195.04,133.81,185.97,514.83,Single-ply,SBD,M
Varsity,89.81,4,Devin Daume,Graham,89.45,181.44,113.4,181.44,476.27,Single-ply,SBD,M
Varsity,89.81,5,Caiden Fenoglio,Nocona,83.19,176.9,120.2,172.37,469.47,Single-ply,SBD,M
Varsity,89.81,6,Adrian Aguilar,Lake Worth,87.91,170.1,102.06,170.1,442.25,Single-ply,SBD,M
Varsity,89.81,7,Matt Sinclair,Boyd,84.01,165.56,97.52,163.29,426.38,Single-ply,SBD,M
Varsity,89.81,8,Andrew Maldonado,Castleberry,85.73,161.03,102.06,158.76,421.84,Single-ply,SBD,M
Varsity,89.81,9,Cody Messer,Nocona,86.45,158.76,83.91,151.95,394.63,Single-ply,SBD,M
Varsity,89.81,10,Jessy Johnson,Perrin-Whitt,87.23,131.54,102.06,154.22,387.82,Single-ply,SBD,M
Varsity,99.79,11,Jerry Don Fincher,Perrin-Whitt,89.95,97.52,74.84,127.01,299.37,Single-ply,SBD,M
Varsity,89.81,DQ,Antonio Murillo,Jacksboro,83.19,163.29,,158.76,,Single-ply,SBD,M
Varsity,99.79,1,Eddie Avalos,Olney,98.16,258.55,147.42,226.8,632.76,Single-ply,SBD,M
Varsity,99.79,2,Spencer Heflin,Lake Worth,97.02,222.26,138.35,238.14,598.74,Single-ply,SBD,M
Varsity,99.79,3,Tyler Tennerson,Mineral Wells,94.26,222.26,170.1,204.12,596.47,Single-ply,SBD,M
Varsity,99.79,4,Jared Smith,Petrolia,95.89,181.44,131.54,190.51,503.49,Single-ply,SBD,M
Varsity,99.79,5,Derek Baynes,Graham,99.16,181.44,102.06,158.76,442.25,Single-ply,SBD,M
Varsity,99.79,6,Robby Patchin,Jacksboro,98.79,181.44,102.06,154.22,437.72,Single-ply,SBD,M
Varsity,99.79,7,Ej Lozada,Jacksboro,94.08,161.03,83.91,167.83,412.77,Single-ply,SBD,M
Varsity,99.79,8,Brian Stapleton,Chico,92.8,136.08,86.18,142.88,365.14,Single-ply,SBD,M
Varsity,99.79,9,Jessie Villalobos,Iowa Park,96.98,138.35,83.91,133.81,356.07,Single-ply,SBD,M
Varsity,99.79,10,Christian Robles,Castleberry,90.45,140.61,74.84,124.74,340.19,Single-ply,SBD,M
Varsity,109.77,1,Trevor Gardner,Lake Worth,105.14,231.33,149.69,226.8,607.81,Single-ply,SBD,M
Varsity,109.77,2,Casey Brock,Perrin-Whitt,109.68,226.8,111.13,190.51,528.44,Single-ply,SBD,M
Varsity,109.77,3,Benny Sanchez,Graham,107.5,219.99,102.06,195.04,517.1,Single-ply,SBD,M
Varsity,109.77,4,Rowdy Harper,Iowa Park,108.59,165.56,97.52,158.76,421.84,Single-ply,SBD,M
Varsity,109.77,5,Gerardo Rosales,Castleberry,108.5,158.76,120.2,136.08,415.04,Single-ply,SBD,M
Varsity,109.77,6,Julio Martinez,Castleberry,109.41,149.69,86.18,136.08,371.95,Single-ply,SBD,M
Varsity,109.77,7,Dusty Rae,Graham,100.15,172.37,,,172.37,Single-ply,S,M
Varsity,109.77,DQ,Gene Griffin,Petrolia,105.87,,65.77,142.88,,Single-ply,SBD,M
Varsity,124.74,1,Damon Hinrichs,Millsap,115.76,258.55,174.63,219.99,653.17,Single-ply,SBD,M
Varsity,124.74,2,Nathan Paschal,Graham,118.12,244.94,127.01,204.12,576.06,Single-ply,SBD,M
Varsity,124.74,3,Ismael Martinez,Strawn,120.34,226.8,136.08,199.58,562.45,Single-ply,SBD,M
Varsity,124.74,4,Payton Smith,Graham,117.75,158.76,104.33,181.44,444.52,Single-ply,SBD,M
Varsity,124.74,5,Luis Salas,Castleberry,111.58,156.49,113.4,167.83,437.72,Single-ply,SBD,M
Varsity,124.74,6,Jacob Ficklin,Iowa Park,119.93,151.95,104.33,174.63,430.91,Single-ply,SBD,M
Varsity,124.74,7,Matthew Tucker,Jacksboro,110.86,167.83,90.72,149.69,408.23,Single-ply,SBD,M
Varsity,124.74,8,Austin Gestes,Iowa Park,117.93,124.74,97.52,158.76,381.02,Single-ply,SBD,M
Varsity,124.74+,1,Zack Hetrick,Strawn,126.01,226.8,149.69,240.4,616.89,Single-ply,SBD,M
Varsity,124.74+,2,Garrett Riggs,Millsap,127.19,208.65,106.59,192.78,508.02,Single-ply,SBD,M
Varsity,124.74+,3,Zachary Graham,Nocona,128.91,172.37,95.25,185.97,453.59,Single-ply,SBD,M
Varsity,124.74+,DQ,Dempsey Dorris,Strawn,139.71,,,,,Single-ply,SBD,M
