Division,WeightClassKg,Place,Name,Team,BodyweightKg,Best3SquatKg,Best3BenchKg,Best3DeadliftKg,TotalKg,Equipment,Event,Sex
Boys,55.79,1,Steven Pham,Sunnyvale,51.94,124.74,68.04,147.42,340.19,Single-ply,SBD,M
Boys,51.71,2,Jesus Perez,Kemp,50.98,102.06,65.77,111.13,278.96,Single-ply,SBD,M
Boys,55.79,1,Rj Reynolds,Commerce,54.61,142.88,83.91,154.22,381.02,Single-ply,SBD,M
Boys,55.79,2,Daniel Pena,Ferris,54.98,140.61,77.11,149.69,367.41,Single-ply,SBD,M
Boys,55.79,3,Nathan Duckworth,Sunnyvale,54.25,115.67,65.77,108.86,290.3,Single-ply,SBD,M
Boys,55.79,4,Peyton Shirey,Scurry-Rosser,55.25,104.33,61.23,120.2,285.76,Single-ply,SBD,M
Boys,59.87,5,Jacob Lopez,Ferris,55.97,104.33,58.97,120.2,283.5,Single-ply,SBD,M
Boys,55.79,6,Jacob Grubisa,Farmersville,52.34,106.59,47.63,111.13,265.35,Single-ply,SBD,M
Boys,55.79,7,Donavan Hosh,Kemp,54.7,77.11,56.7,95.25,229.06,Single-ply,SBD,M
Boys,59.87,1,Matt Castillo,North Mesquite,58.51,147.42,95.25,174.63,417.3,Single-ply,SBD,M
Boys,59.87,2,Dalton Krodle,Commerce,56.97,145.15,79.38,149.69,374.21,Single-ply,SBD,M
Boys,59.87,3,Thein Tran,Sunnyvale,58.6,131.54,68.04,140.61,340.19,Single-ply,SBD,M
Boys,67.13,4,Jacob McLean,Scurry-Rosser,59.96,124.74,72.57,142.88,340.19,Single-ply,SBD,M
Boys,59.87,5,Kaleb Moore,Caddo Mills,58.06,117.93,63.5,151.95,333.39,Single-ply,SBD,M
Boys,59.87,6,Trent Fisher,Kemp,59.51,113.4,72.57,142.88,328.85,Single-ply,SBD,M
Boys,59.87,7,Jimmy Kembrel,Kemp,57.61,113.4,61.23,138.35,312.98,Single-ply,SBD,M
Boys,67.13,8,Mason Alexander,Scurry-Rosser,60.06,108.86,72.57,120.2,301.64,Single-ply,SBD,M
Boys,59.87,DQ,David Isham,Caddo Mills,58.24,102.06,47.63,,,Single-ply,SBD,M
Boys,67.13,1,Alex Ramsey,Royse City,67.13,195.04,129.27,199.58,523.9,Single-ply,SBD,M
Boys,67.13,2,Andres Sandoval,Ferris,65.5,181.44,136.08,185.97,503.49,Single-ply,SBD,M
Boys,67.13,3,Olice Rogers,Kemp,66.13,174.63,111.13,181.44,467.2,Single-ply,SBD,M
Boys,74.84,4,Trevor Bell,Sunnyvale,67.36,188.24,88.45,183.7,460.4,Single-ply,SBD,M
Boys,67.13,5,Brian Lacy,South Garland,61.69,156.49,106.59,161.03,424.11,Single-ply,SBD,M
Boys,67.13,6,Jb Peltier,Commerce,65.59,156.49,102.06,165.56,424.11,Single-ply,SBD,M
Boys,67.13,7,Abe Flores,Sunnyvale,63.32,142.88,86.18,172.37,401.43,Single-ply,SBD,M
Boys,67.13,8,Wayne Warnike,Kemp,66.41,151.95,88.45,161.03,401.43,Single-ply,SBD,M
Boys,74.84,9,DeAndre Jackson,North Mesquite,67.31,136.08,86.18,158.76,381.02,Single-ply,SBD,M
Boys,67.13,10,Jake Glisch,Royse City,66.32,147.42,83.91,145.15,376.48,Single-ply,SBD,M
Boys,74.84,11,Garrett Hayle,Kemp,67.31,142.88,83.91,142.88,369.68,Single-ply,SBD,M
Boys,67.13,12,Javier Gamboa,Commerce,65.68,122.47,65.77,165.56,353.8,Single-ply,SBD,M
Boys,67.13,13,Drake Anderson,Farmersville,66.68,149.69,77.11,124.74,351.53,Single-ply,SBD,M
Boys,67.13,14,Joel Ennin,Sunnyvale,61.6,122.47,70.31,154.22,347,Single-ply,SBD,M
Boys,67.13,15,Rodrigo Castillo,Farmersville,63.68,113.4,74.84,147.42,335.66,Single-ply,SBD,M
Boys,67.13,16,Stone Bankston,Scurry-Rosser,60.33,86.18,54.43,113.4,254.01,Single-ply,SBD,M
Boys,67.13,17,Zach Lemond,Caddo Mills,63.05,86.18,70.31,90.72,247.21,Single-ply,SBD,M
Boys,67.13,DQ,Mason Langthorn,Palmer,63.5,,,,,Single-ply,SBD,M
Boys,74.84,1,Christian Varela,North Mesquite,72.76,183.7,111.13,226.8,521.63,Single-ply,SBD,M
Boys,74.84,2,Dylon Bonesteel,North Mesquite,73.48,185.97,120.2,204.12,510.29,Single-ply,SBD,M
Boys,74.84,3,Mohammed Shalabi,Sunnyvale,72.76,181.44,104.33,181.44,467.2,Single-ply,SBD,M
Boys,74.84,4,Drake Barnika,Kemp,73.94,154.22,92.99,172.37,419.57,Single-ply,SBD,M
Boys,74.84,5,Flozel Nipper,South Garland,74.84,145.15,102.06,172.37,419.57,Single-ply,SBD,M
Boys,74.84,6,Des Black,South Garland,74.3,136.08,99.79,172.37,408.23,Single-ply,SBD,M
Boys,74.84,7,Kyle Rousten,Farmersville,74.66,136.08,70.31,147.42,353.8,Single-ply,SBD,M
Boys,74.84,8,Jesse Landess,Scurry-Rosser,73.48,124.74,81.65,140.61,347,Single-ply,SBD,M
Boys,89.81,1,Brandon Young,Rockwall-Heath,82.28,204.12,142.88,217.72,564.72,Single-ply,SBD,M
Boys,82.1,2,Abdul Khalaf,Sunnyvale,80.47,213.19,129.27,195.04,537.51,Single-ply,SBD,M
Boys,82.1,3,Jacob Grand-Lienard,Rockwall-Heath,78.47,197.31,115.67,222.26,535.24,Single-ply,SBD,M
Boys,82.1,4,Clay Wilkerson,Rockwall-Heath,80.01,183.7,115.67,215.46,514.83,Single-ply,SBD,M
Boys,82.1,5,Dondre Coleman,South Garland,80.01,174.63,122.47,181.44,478.54,Single-ply,SBD,M
Boys,82.1,6,Nick Romo,North Mesquite,78.65,181.44,102.06,185.97,469.47,Single-ply,SBD,M
Boys,82.1,7,Ryan Moss,Sunnyvale,79.83,185.97,95.25,185.97,467.2,Single-ply,SBD,M
Boys,82.1,8,Anthony Tanksley,North Mesquite,76.02,176.9,97.52,185.97,460.4,Single-ply,SBD,M
Boys,82.1,9,Dade Raymond,Royse City,78.38,158.76,120.2,174.63,453.59,Single-ply,SBD,M
Boys,82.1,10,Tristen Carstarphen,Rockwall-Heath,82.01,161.03,104.33,170.1,435.45,Single-ply,SBD,M
Boys,82.1,11,Dylan Stooksberry,South Garland,81.28,158.76,106.59,156.49,421.84,Single-ply,SBD,M
Boys,82.1,12,Brandon Deleon,Sunnyvale,80.2,147.42,88.45,170.1,405.97,Single-ply,SBD,M
Boys,82.1,13,Jimmy Landess,Scurry-Rosser,81.83,149.69,77.11,158.76,385.55,Single-ply,SBD,M
Boys,82.1,14,Tony Ramirez,Commerce,77.75,133.81,70.31,154.22,358.34,Single-ply,SBD,M
Boys,82.1,15,Ryan Perry,Rockwall,80.47,133.81,,,133.81,Single-ply,S,M
Boys,89.81,1,Isaiah Martinez,Commerce,88.63,226.8,158.76,217.72,603.28,Single-ply,SBD,M
Boys,99.79,2,Jarod Loftis,Royse City,89.99,219.99,120.2,238.14,578.33,Single-ply,SBD,M
Boys,89.81,3,Jayson Day,Scurry-Rosser,87.91,195.04,117.93,172.37,485.34,Single-ply,SBD,M
Boys,89.81,4,Ken Louden,North Mesquite,88.72,181.44,102.06,199.58,483.08,Single-ply,SBD,M
Boys,89.81,5,Elijah Huntley,Royse City,86.64,181.44,120.2,170.1,471.74,Single-ply,SBD,M
Boys,89.81,6,Erick Torres,Palmer,87.91,181.44,111.13,165.56,458.13,Single-ply,SBD,M
Boys,89.81,7,Blake Robinson,Rockwall-Heath,84.28,156.49,99.79,181.44,437.72,Single-ply,SBD,M
Boys,89.81,8,Nick Davis,Farmersville,86.18,158.76,86.18,181.44,426.38,Single-ply,SBD,M
Boys,89.81,9,Elijah Banks,North Mesquite,86.64,149.69,111.13,163.29,424.11,Single-ply,SBD,M
Boys,89.81,10,Will Smith #5,Rockwall,85.82,124.74,92.99,142.88,360.61,Single-ply,SBD,M
Boys,89.81,11,Hunter Grant,Farmersville,83.91,106.59,86.18,147.42,340.19,Single-ply,SBD,M
Boys,99.79,1,Joel Dunn,Royse City,90.26,238.14,127.01,197.31,562.45,Single-ply,SBD,M
Boys,99.79,2,Brandon Morris,Scurry-Rosser,94.89,222.26,108.86,217.72,548.85,Single-ply,SBD,M
Boys,99.79,3,Chris Hinckley,Rockwall,96.07,192.78,142.88,204.12,539.77,Single-ply,SBD,M
Boys,99.79,4,Thomas Johnson,Royse City,92.17,229.06,124.74,183.7,537.51,Single-ply,SBD,M
Boys,99.79,5,Christian Crook,Rockwall,98.88,161.03,120.2,174.63,455.86,Single-ply,SBD,M
Boys,99.79,6,Ben Dillion,Kemp,92.9,204.12,136.08,113.4,453.59,Single-ply,SBD,M
Boys,99.79,7,David Delgado,Kemp,97.89,158.76,102.06,158.76,419.57,Single-ply,SBD,M
Boys,99.79,8,Matt Coker,Caddo Mills,94.98,108.86,106.59,151.95,367.41,Single-ply,SBD,M
Boys,99.79,9,Hayden Cantu,Farmersville,93.35,113.4,86.18,140.61,340.19,Single-ply,SBD,M
Boys,109.77,1,Jackson Bolin,Rockwall,109.59,217.72,170.1,226.8,614.62,Single-ply,SBD,M
Boys,109.77,2,Jalon Scott,North Mesquite,102.78,231.33,127.01,213.19,571.53,Single-ply,SBD,M
Boys,109.77,3,Andrew Hughes,Royse City,107.14,208.65,156.49,188.24,553.38,Single-ply,SBD,M
Boys,109.77,4,Robert Perry,Rockwall,107.95,179.17,124.74,179.17,483.08,Single-ply,SBD,M
Boys,109.77,5,Chris Morel,Rockwall-Heath,103.96,176.9,111.13,190.51,478.54,Single-ply,SBD,M
Boys,109.77,6,Leal Sample,Scurry-Rosser,100.15,172.37,113.4,181.44,467.2,Single-ply,SBD,M
Boys,109.77,7,Michael Sheveland,Sunnyvale,105.23,172.37,106.59,176.9,455.86,Single-ply,SBD,M
Boys,109.77,8,Lane Cryer,Scurry-Rosser,101.24,156.49,97.52,167.83,421.84,Single-ply,SBD,M
Boys,109.77,9,Anthony Villa,South Garland,105.05,136.08,113.4,154.22,403.7,Single-ply,SBD,M
Boys,109.77,DQ,Jose Reyes,Royse City,108.68,,,,,Single-ply,SBD,M
Boys,124.74,1,Amine Elhaili,Rockwall,123.1,226.8,124.74,235.87,587.4,Single-ply,SBD,M
Boys,124.74,2,Dameer Tibbs,Rockwall-Heath,112.94,226.8,136.08,219.99,582.87,Single-ply,SBD,M
Boys,124.74,3,Osvaldo Castenada,Royse City,121.11,235.87,142.88,188.24,566.99,Single-ply,SBD,M
Boys,124.74,4,Nickelas Blain,Caddo Mills,122.11,217.72,156.49,165.56,539.77,Single-ply,SBD,M
Boys,124.74,5,James Brown,Royse City,116.12,229.06,133.81,163.29,526.17,Single-ply,SBD,M
Boys,124.74,6,Cameron Defebaugh,Rockwall,118.12,181.44,142.88,188.24,512.56,Single-ply,SBD,M
Boys,124.74,7,Blair Bryant,Rockwall-Heath,112.94,181.44,113.4,190.51,485.34,Single-ply,SBD,M
Boys,124.74,8,Wade Cookston,Sunnyvale,119.75,170.1,115.67,176.9,462.66,Single-ply,SBD,M
Boys,124.74,9,Alex Cortez,Sunnyvale,113.13,181.44,83.91,163.29,428.64,Single-ply,SBD,M
Boys,124.74+,1,Ethan Dobbs,Rockwall-Heath,126.1,278.96,170.1,260.82,709.87,Single-ply,SBD,M
Boys,124.74+,2,Raul Torres,Palmer,130.91,226.8,129.27,224.53,580.6,Single-ply,SBD,M
Boys,124.74+,3,Taylor Zalarius,South Garland,133.99,206.38,154.22,219.99,580.6,Single-ply,SBD,M
Boys,124.74+,4,Michael Nichols #3,North Mesquite,126.46,215.46,136.08,217.72,569.26,Single-ply,SBD,M
Boys,124.74+,5,Trevor Elbert,Rockwall-Heath,131.09,204.12,124.74,213.19,542.04,Single-ply,SBD,M
Boys,124.74+,6,Josh Brown #12,South Garland,134.26,226.8,111.13,204.12,542.04,Single-ply,SBD,M
Boys,124.74+,7,Felix Olvera,Ferris,130.18,210.92,106.59,217.72,535.24,Single-ply,SBD,M
Boys,124.74+,8,Josue Vargas,Ferris,157.49,244.94,106.59,170.1,521.63,Single-ply,SBD,M
Boys,124.74+,9,Brice Chambers,North Mesquite,125.37,190.51,106.59,190.51,487.61,Single-ply,SBD,M
Boys,124.74+,10,Taylor Lacy,South Garland,132,188.24,106.59,181.44,476.27,Single-ply,SBD,M
Boys,124.74+,11,Orville Clark,Rockwall-Heath,136.08,188.24,124.74,,312.98,Single-ply,SB,M
