Name,Sex,Event,Equipment,Division,AgeRange,BodyweightKg,WeightClassKg,Squat1Kg,Squat2Kg,Squat3Kg,Best3SquatKg,Bench1Kg,Bench2Kg,Bench3Kg,Best3BenchKg,Deadlift1Kg,Deadlift2Kg,Deadlift3Kg,Best3DeadliftKg,TotalKg,Place,State
Ben Hartley,M,SBD,Raw,M-C-U18,14-15.5,61.7,66,60,65,70,70,40,45,50,50,80,90,100,100,220,1,NM
Geoff Middleton,M,SBD,Raw,M-C-Open,23.5-38.5,65.4,66,105,115,122.5,122.5,70,-72.5,72.5,72.5,155,165,172.5,172.5,367.5,1,NM
Ted Byrne,M,SBD,Raw,M-C-M3,59.5-68.5,65.2,66,130,140,150,150,80,85,87.5,87.5,180,190,201.5,201.5,439,1,NM
James Leaper,M,B,Raw,M-C-U23,14-22.5,62.8,66,,,,,81,87.5,90,90,,,,,90,1,NM
Mark Harvey,M,SBD,Raw,M-C-U23,14-22.5,70,74,140,150,160,160,90,100,107.5,107.5,170,185,195,195,462.5,1,NM
William McDonald,M,SBD,Raw,M-C-Open,23.5-38.5,71.1,74,150,160,-165,160,105,115,117.5,117.5,180,190,200,200,477.5,3,NM
Benjamin Johnson,M,SBD,Raw,M-C-Open,23.5-38.5,73.4,74,155,-160,-160,155,-112.5,112.5,115,115,200,205,210,210,480,2,NM
Matthew Jackson,M,SBD,Raw,M-C-Open,23.5-38.5,73.3,74,180,190,195.5,195.5,115,122.5,127.5,127.5,205,215,225,225,548,1,NM
Paul Campbell #1,M,SBD,Single-ply,M-E-Open,23.5-38.5,73.9,74,210,220,227.5,227.5,150,-160,160,160,-205,205,220,220,607.5,1,NM
Julian Harvey,M,SBD,Raw,M-C-U23,14-22.5,82.2,83,157.5,165,170,170,100,105,,105,180,192.5,-200,192.5,467.5,1,NM
James Phillips #1,M,SBD,Raw,M-C-Open,23.5-38.5,81.9,83,170,182.5,195,195,117.5,125,130,130,222.5,235,250,250,575,1,NM
Luke Dixon,M,SBD,Raw,M-C-Open,23.5-38.5,80.9,83,175,190,200,200,115,120,127.5,127.5,202.5,215,232.5,232.5,560,2,NM
Michael Coupe,M,SBD,Raw,M-C-Open,23.5-38.5,83,83,70,75,80,80,70,75,-82.5,75,140,155,170,170,325,3,NM
Shaun Haynes,M,SBD,Single-ply,M-E-M1,39.5-48.5,82,83,180,205,227.5,227.5,100,180,-200,180,180,225,237.5,237.5,645,1,NM
Graham McNulty,M,SBD,Raw,M-C-U18,14-17.5,93,93,-160,170,-200,170,110,-120,-120,110,-170,-175,175,175,455,1,NM
Tom Gee #2,M,SBD,Raw,M-C-U23,14-22.5,86.6,93,180,-190,190,190,130,-140,140,140,240,255,-267.5,255,585,1,NM
Ben Whitehouse,M,SBD,Raw,M-C-U23,14-22.5,91.9,93,190,195,-200,195,120,127.5,132.5,132.5,200,212.5,227.5,227.5,555,2,NM
Owen Leggett,M,SBD,Raw,M-C-U23,14-22.5,85,93,185,195,202.5,202.5,110,115,-122.5,115,207.5,215,232.5,232.5,550,3,NM
Connor Szabo,M,SBD,Raw,M-C-U23,14-22.5,89.7,93,180,190,200,200,105,112.5,117.5,117.5,190,205,215,215,532.5,4,NM
Dan Sinclair,M,SBD,Raw,M-C-Open,23.5-38.5,91.5,93,165,175,182.5,182.5,115,125,130,130,215,227.5,-232.5,227.5,540,1,NM
Tom Vivian,M,SBD,Raw,M-C-Open,23.5-38.5,84.5,93,162.5,172.5,180,180,105,112.5,120,120,195,205,215,215,515,2,NM
Nick Broomfield,M,SBD,Raw,M-C-Open,23.5-38.5,92.8,93,170,180,190,190,105,115,120,120,180,200,205,205,515,3,NM
Matthew Goodwin,M,SBD,Raw,M-C-Open,23.5-38.5,89.1,93,120,-140,140,140,105,115,-122.5,115,185,200,210,210,465,4,NM
Alex Purdon,M,SBD,Raw,M-C-Open,23.5-38.5,89,93,-175,-175,-175,,-110,,,,,,,,,DQ,NM
Carl Thomas,M,SBD,Raw,M-C-M2,49.5-58.5,88.4,93,-145,-145,145,145,85,92.5,-97.5,92.5,175,182.5,190.5,190.5,428,1,NM
Ken Vernon,M,SBD,Raw,M-C-Open,23.5-38.5,102.8,105,150,160,165,165,125,130,-135,130,205,215,225,225,520,2,NM
Darren Lloyd,M,SBD,Raw,M-C-M2,49.5-58.5,104.1,105,165,175,180,180,140,145,150,150,185,195,205,205,535,1,NM
Simon Smyth,M,SBD,Raw,M-C-Open,23.5-38.5,103,105,210,220,227.5,227.5,135,-142.5,-142.5,135,220,230,240,240,602.5,1,NM
Michael Asolo,M,SBD,Raw,M-C-U23,14-22.5,113.7,120,190,205,220,220,140,-150,-150,140,220,240,265,265,625,1,NM
Chris Farrow,M,SBD,Raw,M-C-Open,23.5-38.5,118,120,235,245,250,250,145,155,-165,155,250,260,270,270,675,1,NM
David Smith,M,SBD,Raw,M-C-Open,23.5-38.5,112.5,120,220,235,250,250,-150,160,170,170,220,235,-240,235,655,2,NM
Ben Stacey,M,SBD,Raw,M-C-Open,23.5-38.5,116.2,120,200,215,-222.5,215,142.5,152.5,-160,152.5,230,240,247.5,247.5,615,3,NM
Grant Peck,M,SBD,Raw,M-C-Open,23.5-38.5,119.7,120,150,160,-170,160,100,-105,105,105,160,180,200,200,465,4,NM
Aaron Thompson #1,M,SBD,Raw,M-C-Open,23.5-38.5,161,120+,300,320,330,330,180,190,195,195,300,327.5,337.5,337.5,862.5,1,NM
Andy Brooman,M,SBD,Raw,M-C-Open,23.5-38.5,126.9,120+,150,160,170,170,130,137.5,145,145,210,220,-227.5,220,535,2,NM
Linzi Waite,F,SBD,Raw,F-C-Open,23.5-38.5,51,52,75,80,85,85,45,47.5,50,50,90,97.5,-103,97.5,232.5,1,NM
Holly Clarke #2,F,SBD,Raw,F-C-Open,23.5-38.5,50.6,52,70,75,-80,75,30,32.5,35,35,95,100,105,105,215,2,NM
Lisa Chacko,F,SBD,Raw,F-C-U23,14-22.5,56.9,57,57.5,62.5,65,65,35,37.5,40,40,72.5,77.5,82.5,82.5,187.5,1,NM
Emma James,F,SBD,Raw,F-C-Open,23.5-38.5,56.7,57,90,-95,-95,90,50,52.5,-55,52.5,115,120,127.5,127.5,270,1,NM
Suzanne Dakin,F,SBD,Raw,F-C-Open,23.5-38.5,55,57,70,77.5,-80,77.5,42.5,45,47.5,47.5,115,122.5,125,125,250,1,NM
Amelia Maycock,F,SBD,Raw,F-C-U18,14-15.5,60,63,80,85,90,90,42.5,45,47.5,47.5,125,135,141,141,278.5,1,NM
Caroline Baumber,F,SBD,Raw,F-C-U23,14-22.5,58.3,63,92.5,97.5,-100,97.5,47.5,-52.5,-52.5,47.5,120,125,127.5,127.5,272.5,1,NM
Nicole Vaughan,F,SBD,Raw,F-C-U23,14-22.5,62.1,63,90,95,-100,95,42.5,45,-47.5,45,117.5,122.5,130,130,270,2,NM
Claire Lilley,F,SBD,Raw,F-C-Open,23.5-38.5,61.1,63,112.5,117.5,122.5,122.5,62.5,65,-72.5,65,135,145,152.5,152.5,340,1,NM
Hayley Gamblin,F,SBD,Raw,F-C-Open,23.5-38.5,60.8,63,90,95,100,100,50,52.5,55,55,-135,145,-150,145,300,2,NM
Cassandra Marillier,F,SBD,Raw,F-C-Open,23.5-38.5,63,63,80,85,95,95,35,40,45,45,95,105,115,115,255,3,NM
Laura Kilbourne,F,SBD,Raw,F-C-Open,23.5-38.5,62.2,63,-90,90,95,95,47.5,-50,-50,47.5,110,-115,-115,110,252.5,4,NM
Claire Viscomi,F,SBD,Raw,F-C-Open,23.5-38.5,60.9,63,60,65,70,70,30,32.5,35,35,75,80,85,85,190,5,NM
Krystyna Mitchell,F,SBD,Raw,F-C-M1,39.5-48.5,61.3,63,60,65,70,70,40,45,-47.5,45,75,80,85,85,200,1,NM
Holly Bryans,F,SBD,Raw,F-C-U23,14-22.5,69.3,72,130,140,-145,140,60,-65,-65,60,155,165,170,170,370,1,NM
Mica Hollands,F,SBD,Raw,F-C-U23,14-22.5,69.2,72,90,95,100,100,40,42.5,-45,42.5,100,110,117.5,117.5,260,2,NM
Lucy Glover,F,SBD,Raw,F-C-Open,23.5-38.5,68.6,72,120,125,-130,125,70,-72.5,-72.5,70,137.5,-145,145,145,340,1,NM
Sophie Hardy,F,SBD,Raw,F-C-Open,23.5-38.5,70,72,115,122.5,-127.5,122.5,65,70,-72.5,70,135,-145,-145,135,327.5,2,NM
Naomi Hollands,F,SBD,Raw,F-C-Open,23.5-38.5,67.1,72,97.5,110,112.5,112.5,50,55,-57.5,55,145,152.5,157.5,157.5,325,3,NM
Holly Cox,F,SBD,Raw,F-C-Open,23.5-38.5,67.9,72,92.5,97.5,102.5,102.5,50,52.5,55,55,120,127.5,135,135,292.5,4,NM
Amy Clarke,F,SBD,Raw,F-C-Open,23.5-38.5,71.2,72,70,77.5,85,85,45,50,52.5,52.5,110,122.5,130,130,267.5,5,NM
Amy Addlesee,F,SBD,Raw,F-C-Open,23.5-38.5,69.5,72,57.5,65,72.5,72.5,40,42.5,-45,42.5,95,100,105,105,220,6,NM
Joy Mineo,F,SBD,Raw,F-C-M2,49.5-58.5,68.3,72,-90,90,100,100,65,70,-75,70,-140,145,150,150,320,1,NM
Ieva Medne,F,SBD,Raw,F-C-Open,23.5-38.5,82.6,84,90,95,102.5,102.5,42.5,45,-50,45,120,130,140,140,287.5,1,NM
Brigette Morgan,F,SBD,Raw,F-C-M1,39.5-48.5,83.2,84,77.5,82.5,-87.5,82.5,35,37.5,-40,37.5,85,92.5,100,100,220,1,NM
Christine Tempest,F,SBD,Raw,F-C-M1,39.5-48.5,80.8,84,30,35,40,40,30,32.5,-35,32.5,70,77.5,85,85,157.5,2,NM
Sarah Webster,F,SBD,Raw,F-C-Open,23.5-38.5,98.7,84+,110,117.5,-125,117.5,55,62.5,-70,62.5,142.5,147.5,157.5,157.5,337.5,1,NM
Rachael Delaney,F,SBD,Raw,F-C-M1,39.5-48.5,89.6,84+,80,85,90,90,37.5,40,42.5,42.5,107.5,115,120,120,252.5,1,NM
Nicola Maycock,F,SBD,Raw,F-C-M1,39.5-48.5,87.3,84+,80,87.5,92.5,92.5,42.5,45,47.5,47.5,100,110,-117.5,110,250,2,NM
