Name,WeightClassKg,Best3SquatKg,Best3BenchKg,Best3DeadliftKg,TotalKg,Sex,Event,Division,AgeRange,Equipment,Age,Place
David Lewis #1,52,174.63,83.91,167.83,426.38,M,SBD,Open,,Single-ply,,1
Paul Bieber,52,136.08,131.54,124.74,392.36,M,SBD,Open,,Single-ply,,2
Susan Elwyn,52,124.74,68.04,142.88,335.66,F,SBD,Open,,Single-ply,,3
Silver Bryant,52,86.18,34.02,117.93,238.14,F,SBD,Open,,Single-ply,,1
Patricia O'Mahoney,52,83.91,43.09,104.33,231.33,F,SBD,Open,,Single-ply,,2
Cheryl Prizio,56,90.72,43.09,108.86,242.67,F,SBD,Open,,Single-ply,,1
Ray Houle,60,183.7,127.01,204.12,514.83,M,SBD,Open,,Single-ply,,1
G. Steele,60,138.35,122.47,181.44,442.25,M,SBD,Open,,Single-ply,,2
R. Malkasian,60,154.22,104.33,167.83,426.38,M,SBD,Open,,Single-ply,,3
Dennis Strout,60,111.13,86.18,170.1,367.41,M,SBD,Open,,Single-ply,,4
M. Kailher,60,136.08,83.91,147.42,367.41,M,SBD,Open,,Single-ply,,5
Terri Dors,60,136.08,58.97,167.83,362.87,F,SBD,Open,,Single-ply,,1
S. Brown,67.5,210.92,120.2,249.48,580.6,M,SBD,Open,,Single-ply,,1
J. Rizzo,67.5,204.12,136.08,208.65,548.85,M,SBD,Open,,Single-ply,,2
W. Whitmore,67.5,158.76,129.27,210.92,498.95,M,SBD,Open,,Single-ply,,3
T. Venti,67.5,190.51,102.06,192.78,485.34,M,SBD,Open,,Single-ply,,4
S. Bishop,67.5,158.76,124.74,176.9,460.4,M,SBD,Open,,Single-ply,,5
J. Marino,67.5,170.1,108.86,181.44,460.4,M,SBD,Open,,Single-ply,,6
M. Venti,67.5,170.1,97.52,192.78,460.4,M,SBD,Open,,Single-ply,,7
R. Roy,67.5,158.76,97.52,195.04,451.32,M,SBD,Open,,Single-ply,,8
P. Rostano,67.5,140.61,102.06,158.76,401.43,M,SBD,Open,,Single-ply,,9
Kathy Lind,67.5,145.15,68.04,167.83,381.02,F,SBD,Open,,Single-ply,,1
J. Kelley,67.5,133.81,83.91,158.76,376.48,M,SBD,Open,,Single-ply,,10
R. Camacho,67.5,111.13,102.06,133.81,347,M,SBD,Open,,Single-ply,,11
W. Snight,67.5,83.91,83.91,113.4,281.23,M,SBD,Open,,Single-ply,,12
Chris LaRocca,75,213.19,172.37,251.74,637.3,M,SBD,Open,,Single-ply,,1
Mike Mecchella,75,240.4,140.61,235.87,616.89,M,SBD,Open,,Single-ply,,2
Ian Dietz,75,204.12,142.88,226.8,573.79,M,SBD,Open,,Single-ply,,3
Guy Bruno,75,204.12,122.47,238.14,564.72,M,SBD,Open,,Single-ply,,4
M. Grenier,75,213.19,133.81,215.46,562.45,M,SBD,Open,,Single-ply,,5
Brian Thompson,75,192.78,122.47,229.06,544.31,M,SBD,Open,,Single-ply,,6
W. Smigelski,75,204.12,111.13,219.99,535.24,M,SBD,Open,,Single-ply,,7
John LaFlamme,75,188.24,97.52,233.6,519.36,M,SBD,Open,,Single-ply,,8
Paul Bryant #2,75,172.37,83.91,244.94,501.22,M,SBD,Masters 40+,40-999,Single-ply,54,1
L. Stranges,75,181.44,95.25,183.7,460.4,M,SBD,Open,,Single-ply,,9
J. Connell,75,158.76,115.67,183.7,458.13,M,SBD,Open,,Single-ply,,10
Jennifer Weyland,75,158.76,99.79,190.51,449.06,F,SBD,Open,,Single-ply,,1
James Tesiero,75,113.4,117.93,192.78,424.11,M,SBD,Open,,Single-ply,,11
W. Whitmore,75,124.74,111.13,183.7,419.57,M,SBD,Open,,Single-ply,,12
J. Battisto,75,145.15,102.06,167.83,415.04,M,SBD,Open,,Single-ply,,13
J. Clifton,75,136.08,108.86,161.03,405.97,M,SBD,Open,,Single-ply,,14
B. Toot,82.5,244.94,158.76,285.76,689.46,M,SBD,Open,,Single-ply,,1
T. Paul,82.5,272.16,170.1,238.14,680.39,M,SBD,Open,,Single-ply,,2
Peter Higgins,82.5,229.06,149.69,267.62,646.37,M,SBD,Open,,Single-ply,,3
D. Katliar,82.5,219.99,156.49,267.62,644.1,M,SBD,Open,,Single-ply,,4
E. Young,82.5,247.21,120.2,235.87,603.28,M,SBD,Open,,Single-ply,,5
D. Egan,82.5,249.48,124.74,226.8,601.01,M,SBD,Open,,Single-ply,,6
D. Costanzo,82.5,206.38,154.22,231.33,591.94,M,SBD,Open,,Single-ply,,7
D. Dawley,82.5,238.14,117.93,235.87,591.94,M,SBD,Open,,Single-ply,,8
D. Scala,82.5,226.8,124.74,226.8,578.33,M,SBD,Open,,Single-ply,,9
M. Boyle,82.5,215.46,124.74,215.46,555.65,M,SBD,Open,,Single-ply,,10
P. Proto,82.5,174.63,163.29,215.46,553.38,M,SBD,Open,,Single-ply,,11
M. Intemann,82.5,183.7,131.54,238.14,553.38,M,SBD,Open,,Single-ply,,12
D. Lewis #9,82.5,174.63,145.15,213.19,532.97,M,SBD,Open,,Single-ply,16,13
Peter Stromberg,82.5,185.97,111.13,226.8,523.9,M,SBD,Masters 40+,40-999,Single-ply,48,1
A. Silva,82.5,195.04,124.74,199.58,519.36,M,SBD,Open,,Single-ply,,14
J. Wachtel,82.5,188.24,131.54,183.7,503.49,M,SBD,Open,,Single-ply,,15
M. Getchell,82.5,176.9,136.08,176.9,489.88,M,SBD,Open,,Single-ply,,16
J. Ingemi,82.5,192.78,99.79,190.51,483.08,M,SBD,Open,,Single-ply,,17
Saul Friedman,82.5,145.15,140.61,192.78,478.54,M,SBD,Open,,Single-ply,,18
T. Bulman,82.5,149.69,117.93,208.65,476.27,M,SBD,Open,,Single-ply,,19
M. Stendelowicz,82.5,147.42,90.72,192.78,430.91,M,SBD,Open,,Single-ply,,20
B. Koch,82.5,136.08,122.47,170.1,428.64,M,SBD,Open,,Single-ply,,21
M. Matthews,82.5,127.01,108.86,176.9,412.77,M,SBD,Open,,Single-ply,,22
Kevin Pinto,82.5,260.82,170.1,,,M,SBD,Open,,Single-ply,,DQ
J. Ciolino,82.5,204.12,,,,M,SBD,Open,,Single-ply,,DQ
E. Isaminger,82.5,113.4,,,,M,SBD,Open,,Single-ply,,DQ
Jim McCann,90,294.84,172.37,308.44,775.64,M,SBD,Open,,Single-ply,,1
Barry Chepren,90,290.3,163.29,317.51,771.11,M,SBD,Open,,Single-ply,,2
Jim Donahue,90,294.84,181.44,285.76,762.04,M,SBD,Open,,Single-ply,,3
Joe Rizza,90,324.32,163.29,251.74,739.36,M,SBD,Open,,Single-ply,,4
J. Hubbard,90,272.16,145.15,294.84,712.14,M,SBD,Open,,Single-ply,,5
Tom Corrie,90,247.21,149.69,283.5,680.39,M,SBD,Open,,Single-ply,,6
M. Pais,90,256.28,161.03,254.01,671.32,M,SBD,Open,,Single-ply,,7
Ron Paull,90,260.82,145.15,229.06,635.03,M,SBD,Open,,Single-ply,,8
Neal D'Alessio,90,199.58,190.51,226.8,616.89,M,SBD,Open,,Single-ply,,9
J. Scofield,90,199.58,158.76,244.94,603.28,M,SBD,Open,,Single-ply,,10
David Kelley,90,204.12,127.01,272.16,603.28,M,SBD,Open,,Single-ply,,11
A. Maizel,90,213.19,149.69,226.8,589.67,M,SBD,Open,,Single-ply,,12
Geo Reynolds,90,231.33,131.54,226.8,589.67,M,SBD,Open,,Single-ply,,13
R. Capachione,90,215.46,124.74,235.87,576.06,M,SBD,Open,,Single-ply,,14
T. Bermani,90,199.58,131.54,226.8,557.92,M,SBD,Open,,Single-ply,,15
James Sloan,90,201.85,124.74,195.04,521.63,M,SBD,Masters 40+,40-999,Single-ply,,1
G. Gianfredo,90,174.63,120.2,219.99,514.83,M,SBD,Open,,Single-ply,,16
Joe Kurpiel,90,140.61,90.72,181.44,412.77,M,SBD,Masters 40+,40-999,Single-ply,66,2
Sonny Day,90,231.33,172.37,,,M,SBD,Open,,Single-ply,,DQ
Andy Cimbron,90,249.48,149.69,,,M,SBD,Open,,Single-ply,,DQ
Dan Jackson #1,100,251.74,174.63,269.89,696.26,M,SBD,Open,,Single-ply,,1
Chris DiSangro,100,265.35,145.15,283.5,694,M,SBD,Open,,Single-ply,,2
F. Muccio,100,272.16,165.56,251.74,689.46,M,SBD,Open,,Single-ply,,3
R. Lasorsa,100,238.14,158.76,283.5,680.39,M,SBD,Open,,Single-ply,,4
P. Bruni,100,226.8,170.1,226.8,623.69,M,SBD,Open,,Single-ply,,5
Linc Gotshalk,100,206.38,142.88,258.55,607.81,M,SBD,Open,,Single-ply,,6
A. Sollima,100,226.8,136.08,244.94,607.81,M,SBD,Open,,Single-ply,,7
Matt Israelson,100,231.33,122.47,238.14,591.94,M,SBD,Open,,Single-ply,,8
F. Clement,100,185.97,151.95,238.14,576.06,M,SBD,Open,,Single-ply,,9
R. Duke,100,158.76,97.52,197.31,453.59,M,SBD,Open,,Single-ply,,10
W. McGuire,100,61.23,61.23,,,M,SBD,Open,,Single-ply,,DQ
G. Pearson,110,328.85,197.31,301.64,827.81,M,SBD,Open,,Single-ply,,1
Frank Hackett,110,340.19,204.12,281.23,825.54,M,SBD,Open,,Single-ply,,2
Roger Paul,110,294.84,181.44,272.16,748.43,M,SBD,Masters 40+,40-999,Single-ply,42,1
Greg Kostas,110,272.16,183.7,283.5,739.36,M,SBD,Open,,Single-ply,,3
Bill Romaniello,110,274.42,170.1,274.42,718.94,M,SBD,Open,,Single-ply,,4
J. Plamondon,110,256.28,170.1,226.8,653.17,M,SBD,Open,,Single-ply,,5
Wayne Andrews,110,249.48,131.54,272.16,653.17,M,SBD,Open,,Single-ply,,6
William Slish,110,197.31,133.81,222.26,553.38,M,SBD,Open,,Single-ply,,7
J. Mello,110,185.97,111.13,192.78,489.88,M,SBD,Open,,Single-ply,,8
Rich Labbe,110,215.46,226.8,,,M,SBD,Open,,Single-ply,,DQ
Ron Gumbarge,110,,,,,M,SBD,Open,,Single-ply,,DQ
Ernie Hackett,125,410.5,240.4,349.27,1000.17,M,SBD,Open,,Single-ply,,1
Steve Sanderson,125,331.12,192.78,292.57,816.47,M,SBD,Open,,Single-ply,,2
J. Anderson,125,272.16,158.76,281.23,712.14,M,SBD,Open,,Single-ply,,3
Geo Thorsen,125,254.01,181.44,260.82,696.26,M,SBD,Open,,Single-ply,,4
M. Blake,125,226.8,136.08,240.4,603.28,M,SBD,Open,,Single-ply,,5
Salvatore Sansone,125,231.33,122.47,238.14,591.94,M,SBD,Masters 40+,40-999,Single-ply,,1
