Place,Sex,WeightClassKg,BodyweightKg,Name,Team,Bench1Kg,Bench2Kg,Bench3Kg,Best3BenchKg,TotalKg,Division,Equipment,BirthYear,BirthDate,Event
1,F,69,66.95,Linda Wredle,ÅKK,60,65,-70.5,65.0,65,Open,Raw,1979,,B
1,F,76,73.90,Ann-Sofi Boman,ÅKK,77.5,80,82.5,82.5,82.5,Open,Raw,1980,,B
1,F,84,82.95,Malin Olofsson,ÅKK,77.5,82.5,85,85.0,85,Open,Raw,1988,,B
1,M,105,94.85,Anders Johansson,ÅKK,142.5,147.5,-152.5,147.5,147.5,Open,Raw,1968,,B
2,M,105,101.45,Björn Berg,ÅKK,125,135,145,145.0,145,Open,Raw,1982,,B
3,M,105,102.90,Karl-Emil Boijer,ÅKK,135,140,145,145.0,145,Open,Raw,1996,,B
4,M,105,103.55,Jakob Fagerholm,ÅKK,130,137.5,-142.5,137.5,137.5,Open,Raw,1997,,B
1,M,120+,148.90,Ove Lehto,ÅKK,205,217.5,225,225.0,225,Open,Raw,1972,,B
